{
  "accessors": [
    {
      "bufferView": 2,
      "componentType": 5126,
      "count": 264,
      "max": [
        0.37332099676132202,
        3.843480110168457,
        -1.5665500164031982
      ],
      "min": [
        -0.37470999360084534,
        1.0875699520111084,
        -2.7082901000976562
      ],
      "type": "VEC3"
    },
    {
      "bufferView": 2,
      "byteOffset": 3168,
      "componentType": 5126,
      "count": 264,
      "max": [
        1,
        1,
        1
      ],
      "min": [
        -1,
        -1,
        -1
      ],
      "type": "VEC3"
    },
    {
      "bufferView": 3,
      "componentType": 5126,
      "count": 264,
      "max": [
        1,
        1,
        0.00022276472009252757,
        1
      ],
      "min": [
        -1,
        -1.8848480976885185e-05,
        -0.0002544097660575062,
        -1
      ],
      "type": "VEC4"
    },
    {
      "bufferView": 1,
      "componentType": 5126,
      "count": 264,
      "max": [
        -0.00049972499255090952,
        1.999500036239624
      ],
      "min": [
        -0.99949997663497925,
        1.000499963760376
      ],
      "type": "VEC2"
    },
    {
      "bufferView": 0,
      "componentType": 5125,
      "count": 540,
      "max": [
        263
      ],
      "min": [
        0
      ],
      "type": "SCALAR"
    },
    {
      "bufferView": 2,
      "byteOffset": 6336,
      "componentType": 5126,
      "count": 8894,
      "max": [
        0.18159300088882446,
        4.4340300559997559,
        5.086979866027832
      ],
      "min": [
        -0.18365199863910675,
        -2.6132199764251709,
        -2.5508100986480713
      ],
      "type": "VEC3"
    },
    {
      "bufferView": 2,
      "byteOffset": 113064,
      "componentType": 5126,
      "count": 8894,
      "max": [
        1,
        1,
        1
      ],
      "min": [
        -1,
        -1,
        -1
      ],
      "type": "VEC3"
    },
    {
      "bufferView": 3,
      "byteOffset": 4224,
      "componentType": 5126,
      "count": 8894,
      "max": [
        1,
        1,
        0.13597764074802399,
        1
      ],
      "min": [
        -1,
        -0.12748599052429199,
        -0.09364723414182663,
        -1
      ],
      "type": "VEC4"
    },
    {
      "bufferView": 1,
      "byteOffset": 2112,
      "componentType": 5126,
      "count": 8894,
      "max": [
        -0.00049960601609200239,
        1.999500036239624
      ],
      "min": [
        -0.99950098991394043,
        1.000499963760376
      ],
      "type": "VEC2"
    },
    {
      "bufferView": 0,
      "byteOffset": 2160,
      "componentType": 5125,
      "count": 23484,
      "max": [
        8893
      ],
      "min": [
        0
      ],
      "type": "SCALAR"
    },
    {
      "bufferView": 2,
      "byteOffset": 219792,
      "componentType": 5126,
      "count": 1378,
      "max": [
        10.337800025939941,
        14.509099960327148,
        18.655799865722656
      ],
      "min": [
        -9.8527297973632812,
        -67.283401489257812,
        -14.013799667358398
      ],
      "type": "VEC3"
    },
    {
      "bufferView": 2,
      "byteOffset": 236328,
      "componentType": 5126,
      "count": 1378,
      "max": [
        0.99873030185699463,
        0.99997532367706299,
        0.99996483325958252
      ],
      "min": [
        -0.99936878681182861,
        -0.99961209297180176,
        -0.99997240304946899
      ],
      "type": "VEC3"
    },
    {
      "bufferView": 3,
      "byteOffset": 146528,
      "componentType": 5126,
      "count": 1378,
      "max": [
        0.99910211563110352,
        0.99998503923416138,
        0.083741515874862671,
        1
      ],
      "min": [
        -0.99997508525848389,
        -0.064496032893657684,
        -0.08305850625038147,
        -1
      ],
      "type": "VEC4"
    },
    {
      "bufferView": 1,
      "byteOffset": 73264,
      "componentType": 5126,
      "count": 1378,
      "max": [
        0,
        2
      ],
      "min": [
        -1,
        1
      ],
      "type": "VEC2"
    },
    {
      "bufferView": 0,
      "byteOffset": 96096,
      "componentType": 5125,
      "count": 4560,
      "max": [
        1377
      ],
      "min": [
        0
      ],
      "type": "SCALAR"
    },
    {
      "bufferView": 2,
      "byteOffset": 252864,
      "componentType": 5126,
      "count": 448,
      "max": [
        -1.9106199741363525,
        0.86614298820495605,
        3.1858699321746826
      ],
      "min": [
        -2.729949951171875,
        0.70866400003433228,
        1.9171899557113647
      ],
      "type": "VEC3"
    },
    {
      "bufferView": 2,
      "byteOffset": 258240,
      "componentType": 5126,
      "count": 448,
      "max": [
        0.99997550249099731,
        1,
        1
      ],
      "min": [
        -0.9995923638343811,
        -1,
        -0.99990886449813843
      ],
      "type": "VEC3"
    },
    {
      "bufferView": 3,
      "byteOffset": 168576,
      "componentType": 5126,
      "count": 448,
      "max": [
        0,
        0,
        0,
        1
      ],
      "min": [
        0,
        0,
        0,
        1
      ],
      "type": "VEC4"
    },
    {
      "bufferView": 1,
      "byteOffset": 84288,
      "componentType": 5126,
      "count": 448,
      "max": [
        -1,
        1
      ],
      "min": [
        -1,
        1
      ],
      "type": "VEC2"
    },
    {
      "bufferView": 0,
      "byteOffset": 114336,
      "componentType": 5125,
      "count": 1050,
      "max": [
        447
      ],
      "min": [
        0
      ],
      "type": "SCALAR"
    },
    {
      "bufferView": 2,
      "byteOffset": 263616,
      "componentType": 5126,
      "count": 448,
      "max": [
        -1.9106199741363525,
        -1.1023600101470947,
        3.1858799457550049
      ],
      "min": [
        -2.729949951171875,
        -1.2598400115966797,
        1.9171899557113647
      ],
      "type": "VEC3"
    },
    {
      "bufferView": 2,
      "byteOffset": 268992,
      "componentType": 5126,
      "count": 448,
      "max": [
        0.99997550249099731,
        1,
        1
      ],
      "min": [
        -0.9995923638343811,
        -1,
        -0.99990761280059814
      ],
      "type": "VEC3"
    },
    {
      "bufferView": 3,
      "byteOffset": 175744,
      "componentType": 5126,
      "count": 448,
      "max": [
        0,
        0,
        0,
        1
      ],
      "min": [
        0,
        0,
        0,
        1
      ],
      "type": "VEC4"
    },
    {
      "bufferView": 1,
      "byteOffset": 87872,
      "componentType": 5126,
      "count": 448,
      "max": [
        -1,
        1
      ],
      "min": [
        -1,
        1
      ],
      "type": "VEC2"
    },
    {
      "bufferView": 0,
      "byteOffset": 118536,
      "componentType": 5125,
      "count": 1056,
      "max": [
        447
      ],
      "min": [
        0
      ],
      "type": "SCALAR"
    },
    {
      "bufferView": 2,
      "byteOffset": 274368,
      "componentType": 5126,
      "count": 448,
      "max": [
        -1.9106199741363525,
        1.4960700273513794,
        3.1858699321746826
      ],
      "min": [
        -2.729949951171875,
        1.3385800123214722,
        1.9171899557113647
      ],
      "type": "VEC3"
    },
    {
      "bufferView": 2,
      "byteOffset": 279744,
      "componentType": 5126,
      "count": 448,
      "max": [
        0.99997514486312866,
        1,
        1
      ],
      "min": [
        -0.9995923638343811,
        -1,
        -0.99990832805633545
      ],
      "type": "VEC3"
    },
    {
      "bufferView": 3,
      "byteOffset": 182912,
      "componentType": 5126,
      "count": 448,
      "max": [
        0,
        0,
        0,
        1
      ],
      "min": [
        0,
        0,
        0,
        1
      ],
      "type": "VEC4"
    },
    {
      "bufferView": 1,
      "byteOffset": 91456,
      "componentType": 5126,
      "count": 448,
      "max": [
        -1,
        1
      ],
      "min": [
        -1,
        1
      ],
      "type": "VEC2"
    },
    {
      "bufferView": 0,
      "byteOffset": 122760,
      "componentType": 5125,
      "count": 1056,
      "max": [
        447
      ],
      "min": [
        0
      ],
      "type": "SCALAR"
    },
    {
      "bufferView": 2,
      "byteOffset": 285120,
      "componentType": 5126,
      "count": 1313,
      "max": [
        48.458000183105469,
        -42.397998809814453,
        460.49398803710938
      ],
      "min": [
        -297.4580078125,
        -470.27899169921875,
        -18.056800842285156
      ],
      "type": "VEC3"
    },
    {
      "bufferView": 2,
      "byteOffset": 300876,
      "componentType": 5126,
      "count": 1313,
      "max": [
        1,
        0.74434095621109009,
        0.99939489364624023
      ],
      "min": [
        -1,
        -0.99842900037765503,
        -0.97238177061080933
      ],
      "type": "VEC3"
    },
    {
      "bufferView": 3,
      "byteOffset": 190080,
      "componentType": 5126,
      "count": 1313,
      "max": [
        1,
        0.75274127721786499,
        0.92743396759033203,
        1
      ],
      "min": [
        -7.6774140325142071e-06,
        -0.74430632591247559,
        -0.8269498348236084,
        -1
      ],
      "type": "VEC4"
    },
    {
      "bufferView": 1,
      "byteOffset": 95040,
      "componentType": 5126,
      "count": 1313,
      "max": [
        -0.00049996399320662022,
        2.0124399662017822
      ],
      "min": [
        -0.99950098991394043,
        0.99788099527359009
      ],
      "type": "VEC2"
    },
    {
      "bufferView": 0,
      "byteOffset": 126984,
      "componentType": 5125,
      "count": 2169,
      "max": [
        1312
      ],
      "min": [
        0
      ],
      "type": "SCALAR"
    },
    {
      "bufferView": 2,
      "byteOffset": 316632,
      "componentType": 5126,
      "count": 180,
      "max": [
        66.663497924804688,
        43.441001892089844,
        -3.5009899139404297
      ],
      "min": [
        -297.4580078125,
        -51.665901184082031,
        -21.28179931640625
      ],
      "type": "VEC3"
    },
    {
      "bufferView": 2,
      "byteOffset": 318792,
      "componentType": 5126,
      "count": 180,
      "max": [
        1,
        0.99999874830245972,
        0.99999886751174927
      ],
      "min": [
        -1,
        -0.99999874830245972,
        -0.99999886751174927
      ],
      "type": "VEC3"
    },
    {
      "bufferView": 3,
      "byteOffset": 211088,
      "componentType": 5126,
      "count": 180,
      "max": [
        1,
        0.00050287001067772508,
        1,
        1
      ],
      "min": [
        0,
        -0.40438288450241089,
        -1,
        -1
      ],
      "type": "VEC4"
    },
    {
      "bufferView": 1,
      "byteOffset": 105544,
      "componentType": 5126,
      "count": 180,
      "max": [
        -0.00050002301577478647,
        1.9993799924850464
      ],
      "min": [
        -0.99950098991394043,
        1.000499963760376
      ],
      "type": "VEC2"
    },
    {
      "bufferView": 0,
      "byteOffset": 135660,
      "componentType": 5125,
      "count": 246,
      "max": [
        179
      ],
      "min": [
        0
      ],
      "type": "SCALAR"
    },
    {
      "bufferView": 2,
      "byteOffset": 320952,
      "componentType": 5126,
      "count": 90,
      "max": [
        66.663497924804688,
        43.452701568603516,
        3.9052999019622803
      ],
      "min": [
        -297.4580078125,
        -45.17559814453125,
        -3.740149974822998
      ],
      "type": "VEC3"
    },
    {
      "bufferView": 2,
      "byteOffset": 322032,
      "componentType": 5126,
      "count": 90,
      "max": [
        1,
        1,
        1
      ],
      "min": [
        -1,
        -0.99999874830245972,
        -1
      ],
      "type": "VEC3"
    },
    {
      "bufferView": 3,
      "byteOffset": 213968,
      "componentType": 5126,
      "count": 90,
      "max": [
        1,
        0.00032450654543936253,
        1,
        1
      ],
      "min": [
        -9.976805586120463e-07,
        -0.41797977685928345,
        -0.97307902574539185,
        -1
      ],
      "type": "VEC4"
    },
    {
      "bufferView": 1,
      "byteOffset": 106984,
      "componentType": 5126,
      "count": 90,
      "max": [
        -0.00050002301577478647,
        1.999500036239624
      ],
      "min": [
        -0.99950098991394043,
        1.0686600208282471
      ],
      "type": "VEC2"
    },
    {
      "bufferView": 0,
      "byteOffset": 136644,
      "componentType": 5125,
      "count": 153,
      "max": [
        89
      ],
      "min": [
        0
      ],
      "type": "SCALAR"
    },
    {
      "bufferView": 2,
      "byteOffset": 323112,
      "componentType": 5126,
      "count": 1378,
      "max": [
        10.337800025939941,
        14.509099960327148,
        18.655799865722656
      ],
      "min": [
        -9.8527202606201172,
        -67.283401489257812,
        -14.013799667358398
      ],
      "type": "VEC3"
    },
    {
      "bufferView": 2,
      "byteOffset": 339648,
      "componentType": 5126,
      "count": 1378,
      "max": [
        0.99873030185699463,
        0.99997532367706299,
        0.99996507167816162
      ],
      "min": [
        -0.99936878681182861,
        -0.99961203336715698,
        -0.99997246265411377
      ],
      "type": "VEC3"
    },
    {
      "bufferView": 3,
      "byteOffset": 215408,
      "componentType": 5126,
      "count": 1378,
      "max": [
        0.99910217523574829,
        0.99998509883880615,
        0.083743050694465637,
        1
      ],
      "min": [
        -0.99997508525848389,
        -0.064495928585529327,
        -0.082837224006652832,
        -1
      ],
      "type": "VEC4"
    },
    {
      "bufferView": 1,
      "byteOffset": 107704,
      "componentType": 5126,
      "count": 1378,
      "max": [
        0,
        2
      ],
      "min": [
        -1,
        1
      ],
      "type": "VEC2"
    },
    {
      "bufferView": 0,
      "byteOffset": 137256,
      "componentType": 5125,
      "count": 4560,
      "max": [
        1377
      ],
      "min": [
        0
      ],
      "type": "SCALAR"
    },
    {
      "bufferView": 2,
      "byteOffset": 356184,
      "componentType": 5126,
      "count": 448,
      "max": [
        -1.9106199741363525,
        0.86614298820495605,
        3.1858699321746826
      ],
      "min": [
        -2.729949951171875,
        0.70866400003433228,
        1.9171899557113647
      ],
      "type": "VEC3"
    },
    {
      "bufferView": 2,
      "byteOffset": 361560,
      "componentType": 5126,
      "count": 448,
      "max": [
        0.99997550249099731,
        1,
        1
      ],
      "min": [
        -0.9995923638343811,
        -1,
        -0.99990886449813843
      ],
      "type": "VEC3"
    },
    {
      "bufferView": 3,
      "byteOffset": 237456,
      "componentType": 5126,
      "count": 448,
      "max": [
        0,
        0,
        0,
        1
      ],
      "min": [
        0,
        0,
        0,
        1
      ],
      "type": "VEC4"
    },
    {
      "bufferView": 1,
      "byteOffset": 118728,
      "componentType": 5126,
      "count": 448,
      "max": [
        -1,
        1
      ],
      "min": [
        -1,
        1
      ],
      "type": "VEC2"
    },
    {
      "bufferView": 0,
      "byteOffset": 155496,
      "componentType": 5125,
      "count": 1050,
      "max": [
        447
      ],
      "min": [
        0
      ],
      "type": "SCALAR"
    },
    {
      "bufferView": 2,
      "byteOffset": 366936,
      "componentType": 5126,
      "count": 448,
      "max": [
        -1.9106199741363525,
        -1.1023600101470947,
        3.1858799457550049
      ],
      "min": [
        -2.729949951171875,
        -1.2598400115966797,
        1.9171899557113647
      ],
      "type": "VEC3"
    },
    {
      "bufferView": 2,
      "byteOffset": 372312,
      "componentType": 5126,
      "count": 448,
      "max": [
        0.99997550249099731,
        1,
        1
      ],
      "min": [
        -0.9995923638343811,
        -1,
        -0.99990761280059814
      ],
      "type": "VEC3"
    },
    {
      "bufferView": 3,
      "byteOffset": 244624,
      "componentType": 5126,
      "count": 448,
      "max": [
        0,
        0,
        0,
        1
      ],
      "min": [
        0,
        0,
        0,
        1
      ],
      "type": "VEC4"
    },
    {
      "bufferView": 1,
      "byteOffset": 122312,
      "componentType": 5126,
      "count": 448,
      "max": [
        -1,
        1
      ],
      "min": [
        -1,
        1
      ],
      "type": "VEC2"
    },
    {
      "bufferView": 0,
      "byteOffset": 159696,
      "componentType": 5125,
      "count": 1056,
      "max": [
        447
      ],
      "min": [
        0
      ],
      "type": "SCALAR"
    },
    {
      "bufferView": 2,
      "byteOffset": 377688,
      "componentType": 5126,
      "count": 448,
      "max": [
        -1.9106199741363525,
        1.4960700273513794,
        3.1858699321746826
      ],
      "min": [
        -2.729949951171875,
        1.3385800123214722,
        1.9171899557113647
      ],
      "type": "VEC3"
    },
    {
      "bufferView": 2,
      "byteOffset": 383064,
      "componentType": 5126,
      "count": 448,
      "max": [
        0.99997514486312866,
        1,
        1
      ],
      "min": [
        -0.9995923638343811,
        -1,
        -0.99990832805633545
      ],
      "type": "VEC3"
    },
    {
      "bufferView": 3,
      "byteOffset": 251792,
      "componentType": 5126,
      "count": 448,
      "max": [
        0,
        0,
        0,
        1
      ],
      "min": [
        0,
        0,
        0,
        1
      ],
      "type": "VEC4"
    },
    {
      "bufferView": 1,
      "byteOffset": 125896,
      "componentType": 5126,
      "count": 448,
      "max": [
        -1,
        1
      ],
      "min": [
        -1,
        1
      ],
      "type": "VEC2"
    },
    {
      "bufferView": 0,
      "byteOffset": 163920,
      "componentType": 5125,
      "count": 1056,
      "max": [
        447
      ],
      "min": [
        0
      ],
      "type": "SCALAR"
    },
    {
      "bufferView": 2,
      "byteOffset": 388440,
      "componentType": 5126,
      "count": 1313,
      "max": [
        48.458000183105469,
        -42.397998809814453,
        460.49398803710938
      ],
      "min": [
        -297.4580078125,
        -470.27899169921875,
        -18.056800842285156
      ],
      "type": "VEC3"
    },
    {
      "bufferView": 2,
      "byteOffset": 404196,
      "componentType": 5126,
      "count": 1313,
      "max": [
        1,
        0.74434095621109009,
        1
      ],
      "min": [
        -1,
        -0.99842900037765503,
        -0.97238177061080933
      ],
      "type": "VEC3"
    },
    {
      "bufferView": 3,
      "byteOffset": 258960,
      "componentType": 5126,
      "count": 1313,
      "max": [
        1,
        0.75274127721786499,
        0.92743396759033203,
        1
      ],
      "min": [
        -7.8466655395459384e-06,
        -0.74430632591247559,
        -0.82734453678131104,
        -1
      ],
      "type": "VEC4"
    },
    {
      "bufferView": 1,
      "byteOffset": 129480,
      "componentType": 5126,
      "count": 1313,
      "max": [
        -0.00049996399320662022,
        2.0124399662017822
      ],
      "min": [
        -0.99950098991394043,
        0.99788099527359009
      ],
      "type": "VEC2"
    },
    {
      "bufferView": 0,
      "byteOffset": 168144,
      "componentType": 5125,
      "count": 2169,
      "max": [
        1312
      ],
      "min": [
        0
      ],
      "type": "SCALAR"
    },
    {
      "bufferView": 2,
      "byteOffset": 419952,
      "componentType": 5126,
      "count": 180,
      "max": [
        66.663497924804688,
        43.441001892089844,
        -3.5009799003601074
      ],
      "min": [
        -297.4580078125,
        -51.665901184082031,
        -21.28179931640625
      ],
      "type": "VEC3"
    },
    {
      "bufferView": 2,
      "byteOffset": 422112,
      "componentType": 5126,
      "count": 180,
      "max": [
        1,
        0.99999874830245972,
        0.99999886751174927
      ],
      "min": [
        -1,
        -0.99999874830245972,
        -0.99999886751174927
      ],
      "type": "VEC3"
    },
    {
      "bufferView": 3,
      "byteOffset": 279968,
      "componentType": 5126,
      "count": 180,
      "max": [
        1,
        0.00050287001067772508,
        1,
        1
      ],
      "min": [
        0,
        -0.4043811559677124,
        -1,
        -1
      ],
      "type": "VEC4"
    },
    {
      "bufferView": 1,
      "byteOffset": 139984,
      "componentType": 5126,
      "count": 180,
      "max": [
        -0.00050002301577478647,
        1.9993799924850464
      ],
      "min": [
        -0.99950098991394043,
        1.000499963760376
      ],
      "type": "VEC2"
    },
    {
      "bufferView": 0,
      "byteOffset": 176820,
      "componentType": 5125,
      "count": 246,
      "max": [
        179
      ],
      "min": [
        0
      ],
      "type": "SCALAR"
    },
    {
      "bufferView": 2,
      "byteOffset": 424272,
      "componentType": 5126,
      "count": 90,
      "max": [
        66.663497924804688,
        43.452701568603516,
        3.9053099155426025
      ],
      "min": [
        -297.4580078125,
        -45.17559814453125,
        -3.7401399612426758
      ],
      "type": "VEC3"
    },
    {
      "bufferView": 2,
      "byteOffset": 425352,
      "componentType": 5126,
      "count": 90,
      "max": [
        1,
        1,
        1
      ],
      "min": [
        -1,
        -0.99999874830245972,
        -1
      ],
      "type": "VEC3"
    },
    {
      "bufferView": 3,
      "byteOffset": 282848,
      "componentType": 5126,
      "count": 90,
      "max": [
        1,
        0.00032450677827000618,
        1,
        1
      ],
      "min": [
        -9.976805586120463e-07,
        -0.41797980666160583,
        -0.97307908535003662,
        -1
      ],
      "type": "VEC4"
    },
    {
      "bufferView": 1,
      "byteOffset": 141424,
      "componentType": 5126,
      "count": 90,
      "max": [
        -0.00050002301577478647,
        1.999500036239624
      ],
      "min": [
        -0.99950098991394043,
        1.0686600208282471
      ],
      "type": "VEC2"
    },
    {
      "bufferView": 0,
      "byteOffset": 177804,
      "componentType": 5125,
      "count": 153,
      "max": [
        89
      ],
      "min": [
        0
      ],
      "type": "SCALAR"
    },
    {
      "bufferView": 2,
      "byteOffset": 426432,
      "componentType": 5126,
      "count": 50,
      "max": [
        0.42355799674987793,
        0.61584901809692383,
        0.11443299800157547
      ],
      "min": [
        -0.42342099547386169,
        -4.675370064433082e-07,
        -0.11590900272130966
      ],
      "type": "VEC3"
    },
    {
      "bufferView": 2,
      "byteOffset": 427032,
      "componentType": 5126,
      "count": 50,
      "max": [
        0.97985976934432983,
        0.82837897539138794,
        0.99999713897705078
      ],
      "min": [
        -1,
        -0.002418251009657979,
        -0.99999713897705078
      ],
      "type": "VEC3"
    },
    {
      "bufferView": 3,
      "byteOffset": 284288,
      "componentType": 5126,
      "count": 50,
      "max": [
        1,
        0.00051670084940269589,
        0.97985988855361938,
        1
      ],
      "min": [
        0,
        -0.0098225222900509834,
        -1.8665812717699737e-07,
        -1
      ],
      "type": "VEC4"
    },
    {
      "bufferView": 1,
      "byteOffset": 142144,
      "componentType": 5126,
      "count": 50,
      "max": [
        -0.0081818103790283203,
        1.495919942855835
      ],
      "min": [
        -0.94779402017593384,
        1.0021500587463379
      ],
      "type": "VEC2"
    },
    {
      "bufferView": 0,
      "byteOffset": 178416,
      "componentType": 5125,
      "count": 132,
      "max": [
        49
      ],
      "min": [
        0
      ],
      "type": "SCALAR"
    },
    {
      "bufferView": 2,
      "byteOffset": 427632,
      "componentType": 5126,
      "count": 50,
      "max": [
        0.42355799674987793,
        0.61584901809692383,
        0.11443299800157547
      ],
      "min": [
        -0.42342099547386169,
        -4.675370064433082e-07,
        -0.11590900272130966
      ],
      "type": "VEC3"
    },
    {
      "bufferView": 2,
      "byteOffset": 428232,
      "componentType": 5126,
      "count": 50,
      "max": [
        1,
        1,
        0.00013275799574330449
      ],
      "min": [
        -0.00054701993940398097,
        -1,
        -0.64743208885192871
      ],
      "type": "VEC3"
    },
    {
      "bufferView": 3,
      "byteOffset": 285088,
      "componentType": 5126,
      "count": 50,
      "max": [
        0,
        0,
        0,
        1
      ],
      "min": [
        0,
        0,
        0,
        1
      ],
      "type": "VEC4"
    },
    {
      "bufferView": 0,
      "byteOffset": 178944,
      "componentType": 5125,
      "count": 132,
      "max": [
        49
      ],
      "min": [
        0
      ],
      "type": "SCALAR"
    },
    {
      "bufferView": 2,
      "byteOffset": 428832,
      "componentType": 5126,
      "count": 50,
      "max": [
        0.42342299222946167,
        0.61584597826004028,
        0.11443399637937546
      ],
      "min": [
        -0.42342099547386169,
        -2.9387699669314316e-06,
        -0.11442600190639496
      ],
      "type": "VEC3"
    },
    {
      "bufferView": 2,
      "byteOffset": 429432,
      "componentType": 5126,
      "count": 50,
      "max": [
        0.97986000776290894,
        0.80082219839096069,
        1
      ],
      "min": [
        -1,
        -7.5473872129805386e-06,
        -1
      ],
      "type": "VEC3"
    },
    {
      "bufferView": 3,
      "byteOffset": 285888,
      "componentType": 5126,
      "count": 50,
      "max": [
        1,
        0.0049905669875442982,
        0.97986000776290894,
        1
      ],
      "min": [
        0,
        -0.27568221092224121,
        -9.6785576886304625e-08,
        -1
      ],
      "type": "VEC4"
    },
    {
      "bufferView": 1,
      "byteOffset": 142544,
      "componentType": 5126,
      "count": 50,
      "max": [
        -0.008332730270922184,
        1.9978499412536621
      ],
      "min": [
        -0.94779497385025024,
        1.504080057144165
      ],
      "type": "VEC2"
    },
    {
      "bufferView": 0,
      "byteOffset": 179472,
      "componentType": 5125,
      "count": 132,
      "max": [
        49
      ],
      "min": [
        0
      ],
      "type": "SCALAR"
    },
    {
      "bufferView": 2,
      "byteOffset": 430032,
      "componentType": 5126,
      "count": 48,
      "max": [
        0.42342299222946167,
        0.61584597826004028,
        0.11443399637937546
      ],
      "min": [
        -0.42342099547386169,
        -2.9387699669314316e-06,
        -0.11442600190639496
      ],
      "type": "VEC3"
    },
    {
      "bufferView": 2,
      "byteOffset": 430608,
      "componentType": 5126,
      "count": 48,
      "max": [
        1,
        1,
        0.00014354899758473039
      ],
      "min": [
        -0.00015223599621094763,
        -1,
        -0.65122276544570923
      ],
      "type": "VEC3"
    },
    {
      "bufferView": 3,
      "byteOffset": 286688,
      "componentType": 5126,
      "count": 48,
      "max": [
        0.51304799318313599,
        0.53040814399719238,
        1,
        1
      ],
      "min": [
        -0.37170851230621338,
        -0.53471356630325317,
        -1,
        -1
      ],
      "type": "VEC4"
    },
    {
      "bufferView": 0,
      "byteOffset": 180000,
      "componentType": 5125,
      "count": 132,
      "max": [
        47
      ],
      "min": [
        0
      ],
      "type": "SCALAR"
    },
    {
      "bufferView": 2,
      "byteOffset": 431184,
      "componentType": 5126,
      "count": 50,
      "max": [
        0.42342099547386169,
        0.61584800481796265,
        0.11443299800157547
      ],
      "min": [
        -0.42355701327323914,
        -2.1431699224194745e-06,
        -0.11590799689292908
      ],
      "type": "VEC3"
    },
    {
      "bufferView": 2,
      "byteOffset": 431784,
      "componentType": 5126,
      "count": 50,
      "max": [
        1,
        0.82851690053939819,
        0.99999713897705078
      ],
      "min": [
        -0.97985976934432983,
        -0.0024180496111512184,
        -0.99999713897705078
      ],
      "type": "VEC3"
    },
    {
      "bufferView": 3,
      "byteOffset": 287456,
      "componentType": 5126,
      "count": 50,
      "max": [
        0,
        0.00041259502177126706,
        0.97985988855361938,
        1
      ],
      "min": [
        -1,
        -0.0093986643478274345,
        -8.2980847082581022e-08,
        -1
      ],
      "type": "VEC4"
    },
    {
      "bufferView": 1,
      "byteOffset": 142944,
      "componentType": 5126,
      "count": 50,
      "max": [
        -0.0081818103790283203,
        1.495919942855835
      ],
      "min": [
        -0.94779402017593384,
        1.0021500587463379
      ],
      "type": "VEC2"
    },
    {
      "bufferView": 0,
      "byteOffset": 180528,
      "componentType": 5125,
      "count": 132,
      "max": [
        49
      ],
      "min": [
        0
      ],
      "type": "SCALAR"
    },
    {
      "bufferView": 2,
      "byteOffset": 432384,
      "componentType": 5126,
      "count": 50,
      "max": [
        0.42342099547386169,
        0.61584800481796265,
        0.11443299800157547
      ],
      "min": [
        -0.42355701327323914,
        -2.1431699224194745e-06,
        -0.11590799689292908
      ],
      "type": "VEC3"
    },
    {
      "bufferView": 2,
      "byteOffset": 432984,
      "componentType": 5126,
      "count": 50,
      "max": [
        0.00026090399478562176,
        1,
        8.1373502325732261e-05
      ],
      "min": [
        -1,
        -1,
        -0.64978301525115967
      ],
      "type": "VEC3"
    },
    {
      "bufferView": 3,
      "byteOffset": 288256,
      "componentType": 5126,
      "count": 50,
      "max": [
        0,
        0,
        0,
        1
      ],
      "min": [
        0,
        0,
        0,
        1
      ],
      "type": "VEC4"
    },
    {
      "bufferView": 0,
      "byteOffset": 181056,
      "componentType": 5125,
      "count": 132,
      "max": [
        49
      ],
      "min": [
        0
      ],
      "type": "SCALAR"
    },
    {
      "bufferView": 2,
      "byteOffset": 433584,
      "componentType": 5126,
      "count": 50,
      "max": [
        0.42342299222946167,
        0.61584699153900146,
        0.11442799866199493
      ],
      "min": [
        -0.4234200119972229,
        -1.8765599634207319e-06,
        -0.11443199962377548
      ],
      "type": "VEC3"
    },
    {
      "bufferView": 2,
      "byteOffset": 434184,
      "componentType": 5126,
      "count": 50,
      "max": [
        1,
        0.80082535743713379,
        1
      ],
      "min": [
        -0.97986000776290894,
        -6.5582285060372669e-06,
        -1
      ],
      "type": "VEC3"
    },
    {
      "bufferView": 3,
      "byteOffset": 289056,
      "componentType": 5126,
      "count": 50,
      "max": [
        0,
        0.00499721709638834,
        0.97985994815826416,
        1
      ],
      "min": [
        -1,
        -0.27578020095825195,
        0,
        -1
      ],
      "type": "VEC4"
    },
    {
      "bufferView": 1,
      "byteOffset": 143344,
      "componentType": 5126,
      "count": 50,
      "max": [
        -0.008332730270922184,
        1.9978499412536621
      ],
      "min": [
        -0.94779497385025024,
        1.504080057144165
      ],
      "type": "VEC2"
    },
    {
      "bufferView": 0,
      "byteOffset": 181584,
      "componentType": 5125,
      "count": 132,
      "max": [
        49
      ],
      "min": [
        0
      ],
      "type": "SCALAR"
    },
    {
      "bufferView": 2,
      "byteOffset": 434784,
      "componentType": 5126,
      "count": 48,
      "max": [
        0.42342299222946167,
        0.61584699153900146,
        0.11442799866199493
      ],
      "min": [
        -0.4234200119972229,
        -1.8765599634207319e-06,
        -0.11443199962377548
      ],
      "type": "VEC3"
    },
    {
      "bufferView": 2,
      "byteOffset": 435360,
      "componentType": 5126,
      "count": 48,
      "max": [
        0.00015689000429119915,
        1,
        0.00014355000166688114
      ],
      "min": [
        -1,
        -1,
        -0.65121495723724365
      ],
      "type": "VEC3"
    },
    {
      "bufferView": 3,
      "byteOffset": 289856,
      "componentType": 5126,
      "count": 48,
      "max": [
        0.37172898650169373,
        0.53040200471878052,
        1,
        1
      ],
      "min": [
        -0.51202040910720825,
        -0.53468543291091919,
        -1,
        -1
      ],
      "type": "VEC4"
    },
    {
      "bufferView": 0,
      "byteOffset": 182112,
      "componentType": 5125,
      "count": 132,
      "max": [
        47
      ],
      "min": [
        0
      ],
      "type": "SCALAR"
    },
    {
      "bufferView": 2,
      "byteOffset": 435936,
      "componentType": 5126,
      "count": 66,
      "max": [
        0.55568999052047729,
        0.69544100761413574,
        -4.9424300193786621
      ],
      "min": [
        0.46792799234390259,
        0.5647590160369873,
        -5.048029899597168
      ],
      "type": "VEC3"
    },
    {
      "bufferView": 2,
      "byteOffset": 436728,
      "componentType": 5126,
      "count": 66,
      "max": [
        0.99992513656616211,
        0.98702210187911987,
        0.98692762851715088
      ],
      "min": [
        -0.99992573261260986,
        -0.98701900243759155,
        -0.98692035675048828
      ],
      "type": "VEC3"
    },
    {
      "bufferView": 3,
      "byteOffset": 290624,
      "componentType": 5126,
      "count": 66,
      "max": [
        0.1403287798166275,
        0.0072661242447793484,
        0.921070396900177,
        1
      ],
      "min": [
        -1,
        -0.073789723217487335,
        -0.99992763996124268,
        -1
      ],
      "type": "VEC4"
    },
    {
      "bufferView": 1,
      "byteOffset": 143744,
      "componentType": 5126,
      "count": 66,
      "max": [
        -0.36265900731086731,
        1.4100099802017212
      ],
      "min": [
        -0.38365000486373901,
        1.3798799514770508
      ],
      "type": "VEC2"
    },
    {
      "bufferView": 0,
      "byteOffset": 182640,
      "componentType": 5125,
      "count": 192,
      "max": [
        65
      ],
      "min": [
        0
      ],
      "type": "SCALAR"
    },
    {
      "bufferView": 2,
      "byteOffset": 437520,
      "componentType": 5126,
      "count": 66,
      "max": [
        -0.48761498928070068,
        0.69543802738189697,
        -4.9424300193786621
      ],
      "min": [
        -0.57537901401519775,
        0.56475698947906494,
        -5.048029899597168
      ],
      "type": "VEC3"
    },
    {
      "bufferView": 2,
      "byteOffset": 438312,
      "componentType": 5126,
      "count": 66,
      "max": [
        0.99992513656616211,
        0.98701590299606323,
        0.98692798614501953
      ],
      "min": [
        -0.99992465972900391,
        -0.98702621459960938,
        -0.98692035675048828
      ],
      "type": "VEC3"
    },
    {
      "bufferView": 3,
      "byteOffset": 291680,
      "componentType": 5126,
      "count": 66,
      "max": [
        0.14056499302387238,
        0.007516173180192709,
        0.92107009887695312,
        1
      ],
      "min": [
        -1,
        -0.068155176937580109,
        -0.99992674589157104,
        -1
      ],
      "type": "VEC4"
    },
    {
      "bufferView": 1,
      "byteOffset": 144272,
      "componentType": 5126,
      "count": 66,
      "max": [
        -0.36265900731086731,
        1.4100099802017212
      ],
      "min": [
        -0.38365000486373901,
        1.3798799514770508
      ],
      "type": "VEC2"
    },
    {
      "bufferView": 0,
      "byteOffset": 183408,
      "componentType": 5125,
      "count": 192,
      "max": [
        65
      ],
      "min": [
        0
      ],
      "type": "SCALAR"
    },
    {
      "bufferView": 2,
      "byteOffset": 439104,
      "componentType": 5126,
      "count": 8754,
      "max": [
        2.6968400478363037,
        4.0403199195861816,
        -2.7097399234771729
      ],
      "min": [
        -2.6968400478363037,
        -1.9045599699020386,
        -4.9735198020935059
      ],
      "type": "VEC3"
    },
    {
      "bufferView": 2,
      "byteOffset": 544152,
      "componentType": 5126,
      "count": 8754,
      "max": [
        1,
        1,
        1
      ],
      "min": [
        -1,
        -1,
        -1
      ],
      "type": "VEC3"
    },
    {
      "bufferView": 3,
      "byteOffset": 292736,
      "componentType": 5126,
      "count": 8754,
      "max": [
        1,
        1,
        0.21691329777240753,
        1
      ],
      "min": [
        -0.04823564738035202,
        -1,
        -0.16329200565814972,
        -1
      ],
      "type": "VEC4"
    },
    {
      "bufferView": 1,
      "byteOffset": 144800,
      "componentType": 5126,
      "count": 8754,
      "max": [
        0.01982169970870018,
        2.1832098960876465
      ],
      "min": [
        -1.0964200496673584,
        0.96878397464752197
      ],
      "type": "VEC2"
    },
    {
      "bufferView": 0,
      "byteOffset": 184176,
      "componentType": 5125,
      "count": 29298,
      "max": [
        8753
      ],
      "min": [
        0
      ],
      "type": "SCALAR"
    },
    {
      "bufferView": 2,
      "byteOffset": 649200,
      "componentType": 5126,
      "count": 352,
      "max": [
        2.5984299182891846,
        3.6466100215911865,
        -4.2451701164245605
      ],
      "min": [
        -2.5984299182891846,
        0.41826099157333374,
        -4.9538297653198242
      ],
      "type": "VEC3"
    },
    {
      "bufferView": 2,
      "byteOffset": 653424,
      "componentType": 5126,
      "count": 352,
      "max": [
        1,
        1,
        1
      ],
      "min": [
        -1,
        -1,
        -0.99999850988388062
      ],
      "type": "VEC3"
    },
    {
      "bufferView": 3,
      "byteOffset": 432800,
      "componentType": 5126,
      "count": 352,
      "max": [
        1,
        1,
        0.11925440281629562,
        1
      ],
      "min": [
        -0.013651086017489433,
        -1,
        -0.074151910841464996,
        -1
      ],
      "type": "VEC4"
    },
    {
      "bufferView": 0,
      "byteOffset": 301368,
      "componentType": 5125,
      "count": 969,
      "max": [
        351
      ],
      "min": [
        0
      ],
      "type": "SCALAR"
    },
    {
      "bufferView": 2,
      "byteOffset": 657648,
      "componentType": 5126,
      "count": 1276,
      "max": [
        2.0866100788116455,
        3.2529199123382568,
        -4.9144601821899414
      ],
      "min": [
        -2.0866200923919678,
        -1.0777900218963623,
        -5.0325698852539062
      ],
      "type": "VEC3"
    },
    {
      "bufferView": 2,
      "byteOffset": 672960,
      "componentType": 5126,
      "count": 1276,
      "max": [
        1,
        1,
        1
      ],
      "min": [
        -1,
        -1,
        -1
      ],
      "type": "VEC3"
    },
    {
      "bufferView": 3,
      "byteOffset": 438432,
      "componentType": 5126,
      "count": 1276,
      "max": [
        1,
        1,
        1.0538323294895235e-05,
        1
      ],
      "min": [
        -9.5618804607511265e-07,
        -1,
        -5.7901816035155207e-06,
        -1
      ],
      "type": "VEC4"
    },
    {
      "bufferView": 1,
      "byteOffset": 214832,
      "componentType": 5126,
      "count": 1276,
      "max": [
        -0.09741540253162384,
        1.000499963760376
      ],
      "min": [
        -0.88767200708389282,
        0.93238598108291626
      ],
      "type": "VEC2"
    },
    {
      "bufferView": 0,
      "byteOffset": 305244,
      "componentType": 5125,
      "count": 2400,
      "max": [
        1275
      ],
      "min": [
        0
      ],
      "type": "SCALAR"
    },
    {
      "bufferView": 2,
      "byteOffset": 688272,
      "componentType": 5126,
      "count": 1488,
      "max": [
        2.5984199047088623,
        -0.72345298528671265,
        -3.1821799278259277
      ],
      "min": [
        -2.6771700382232666,
        -0.84157001972198486,
        -4.9144601821899414
      ],
      "type": "VEC3"
    },
    {
      "bufferView": 2,
      "byteOffset": 706128,
      "componentType": 5126,
      "count": 1488,
      "max": [
        1,
        1,
        1
      ],
      "min": [
        -1,
        -1,
        -1
      ],
      "type": "VEC3"
    },
    {
      "bufferView": 3,
      "byteOffset": 458848,
      "componentType": 5126,
      "count": 1488,
      "max": [
        1,
        1,
        0.059971977025270462,
        1
      ],
      "min": [
        -8.3151044236728922e-06,
        -1,
        -0.062762260437011719,
        -1
      ],
      "type": "VEC4"
    },
    {
      "bufferView": 1,
      "byteOffset": 225040,
      "componentType": 5126,
      "count": 1488,
      "max": [
        0.99949997663497925,
        0.99949997663497925
      ],
      "min": [
        0.00049945700448006392,
        0.00049972499255090952
      ],
      "type": "VEC2"
    },
    {
      "bufferView": 0,
      "byteOffset": 314844,
      "componentType": 5125,
      "count": 3798,
      "max": [
        1487
      ],
      "min": [
        0
      ],
      "type": "SCALAR"
    },
    {
      "bufferView": 2,
      "byteOffset": 723984,
      "componentType": 5126,
      "count": 66,
      "max": [
        2.2441000938415527,
        3.6072499752044678,
        -4.2058000564575195
      ],
      "min": [
        -2.3228499889373779,
        2.898590087890625,
        -4.9144601821899414
      ],
      "type": "VEC3"
    },
    {
      "bufferView": 2,
      "byteOffset": 724776,
      "componentType": 5126,
      "count": 66,
      "max": [
        1,
        0.9978097677230835,
        0.99780923128128052
      ],
      "min": [
        -1,
        -0.9978097677230835,
        -0.99780923128128052
      ],
      "type": "VEC3"
    },
    {
      "bufferView": 3,
      "byteOffset": 482656,
      "componentType": 5126,
      "count": 66,
      "max": [
        1,
        1,
        0.91000521183013916,
        1
      ],
      "min": [
        -7.1680774453852791e-06,
        -1,
        -0.00037440887535922229,
        -1
      ],
      "type": "VEC4"
    },
    {
      "bufferView": 0,
      "byteOffset": 330036,
      "componentType": 5125,
      "count": 192,
      "max": [
        65
      ],
      "min": [
        0
      ],
      "type": "SCALAR"
    },
    {
      "bufferView": 2,
      "byteOffset": 725568,
      "componentType": 5126,
      "count": 2325,
      "max": [
        109.35299682617188,
        222.43699645996094,
        -30.920200347900391
      ],
      "min": [
        -122.60299682617188,
        -143.82400512695312,
        -151.46499633789062
      ],
      "type": "VEC3"
    },
    {
      "bufferView": 2,
      "byteOffset": 753468,
      "componentType": 5126,
      "count": 2325,
      "max": [
        0.99852675199508667,
        1,
        0.99991053342819214
      ],
      "min": [
        -0.99992573261260986,
        -0.99841111898422241,
        -0.99728113412857056
      ],
      "type": "VEC3"
    },
    {
      "bufferView": 3,
      "byteOffset": 483712,
      "componentType": 5126,
      "count": 2325,
      "max": [
        1,
        0.99350923299789429,
        0.93637096881866455,
        1
      ],
      "min": [
        -1,
        -0.99880343675613403,
        -0.91726309061050415,
        -1
      ],
      "type": "VEC4"
    },
    {
      "bufferView": 1,
      "byteOffset": 236944,
      "componentType": 5126,
      "count": 2325,
      "max": [
        249.63600158691406,
        1.2196500301361084
      ],
      "min": [
        -282.07699584960938,
        -150
      ],
      "type": "VEC2"
    },
    {
      "bufferView": 0,
      "byteOffset": 330804,
      "componentType": 5125,
      "count": 10125,
      "max": [
        2324
      ],
      "min": [
        0
      ],
      "type": "SCALAR"
    },
    {
      "bufferView": 2,
      "byteOffset": 781368,
      "componentType": 5126,
      "count": 97,
      "max": [
        98.281898498535156,
        59.055099487304688,
        -60.429000854492188
      ],
      "min": [
        -111.05400085449219,
        -59.055099487304688,
        -88.58270263671875
      ],
      "type": "VEC3"
    },
    {
      "bufferView": 2,
      "byteOffset": 782532,
      "componentType": 5126,
      "count": 97,
      "max": [
        0,
        0,
        1
      ],
      "min": [
        -0.00013473800208885223,
        -1,
        0
      ],
      "type": "VEC3"
    },
    {
      "bufferView": 3,
      "byteOffset": 520912,
      "componentType": 5126,
      "count": 97,
      "max": [
        1,
        3.8730657252017409e-05,
        0,
        1
      ],
      "min": [
        0,
        -4.228616671753116e-05,
        0,
        1
      ],
      "type": "VEC4"
    },
    {
      "bufferView": 1,
      "byteOffset": 255544,
      "componentType": 5126,
      "count": 97,
      "max": [
        248.63600158691406,
        151
      ],
      "min": [
        -283.07699584960938,
        -149
      ],
      "type": "VEC2"
    },
    {
      "bufferView": 0,
      "byteOffset": 371304,
      "componentType": 5125,
      "count": 273,
      "max": [
        96
      ],
      "min": [
        0
      ],
      "type": "SCALAR"
    },
    {
      "bufferView": 2,
      "byteOffset": 783696,
      "componentType": 5126,
      "count": 686,
      "max": [
        104.66799926757812,
        25.111400604248047,
        62.720401763916016
      ],
      "min": [
        -104.66799926757812,
        -25.111400604248047,
        -62.720401763916016
      ],
      "type": "VEC3"
    },
    {
      "bufferView": 2,
      "byteOffset": 791928,
      "componentType": 5126,
      "count": 686,
      "max": [
        0.9457738995552063,
        0.99996089935302734,
        0.98325812816619873
      ],
      "min": [
        -0.94601935148239136,
        -0.99996089935302734,
        -0.98335975408554077
      ],
      "type": "VEC3"
    },
    {
      "bufferView": 3,
      "byteOffset": 522464,
      "componentType": 5126,
      "count": 686,
      "max": [
        1,
        0.92211401462554932,
        0.99922788143157959,
        1
      ],
      "min": [
        -1,
        -0.91852563619613647,
        -0.99922919273376465,
        -1
      ],
      "type": "VEC4"
    },
    {
      "bufferView": 0,
      "byteOffset": 372396,
      "componentType": 5125,
      "count": 2775,
      "max": [
        685
      ],
      "min": [
        0
      ],
      "type": "SCALAR"
    },
    {
      "bufferView": 2,
      "byteOffset": 800160,
      "componentType": 5126,
      "count": 135,
      "max": [
        1.0719599723815918,
        -1.7091200351715088,
        -4.1783299446105957
      ],
      "min": [
        -1.0931999683380127,
        -4.3378400802612305,
        -5.1670999526977539
      ],
      "type": "VEC3"
    },
    {
      "bufferView": 2,
      "byteOffset": 801780,
      "componentType": 5126,
      "count": 135,
      "max": [
        0.99118375778198242,
        0.95114749670028687,
        0.99673765897750854
      ],
      "min": [
        -0.99402338266372681,
        -0.99674087762832642,
        -0.95105654001235962
      ],
      "type": "VEC3"
    },
    {
      "bufferView": 3,
      "byteOffset": 533440,
      "componentType": 5126,
      "count": 135,
      "max": [
        1,
        0.52959638833999634,
        0.91609305143356323,
        1
      ],
      "min": [
        0.030385937541723251,
        -0.52296370267868042,
        -0.91600668430328369,
        -1
      ],
      "type": "VEC4"
    },
    {
      "bufferView": 1,
      "byteOffset": 256320,
      "componentType": 5126,
      "count": 135,
      "max": [
        -0.17864899337291718,
        1.6814899444580078
      ],
      "min": [
        -0.82099401950836182,
        0.99311298131942749
      ],
      "type": "VEC2"
    },
    {
      "bufferView": 0,
      "byteOffset": 383496,
      "componentType": 5125,
      "count": 366,
      "max": [
        134
      ],
      "min": [
        0
      ],
      "type": "SCALAR"
    },
    {
      "bufferView": 2,
      "byteOffset": 803400,
      "componentType": 5126,
      "count": 212,
      "max": [
        0.76241397857666016,
        -3.5133399963378906,
        -4.7805399894714355
      ],
      "min": [
        -0.79377901554107666,
        -4.3848800659179688,
        -5.0299501419067383
      ],
      "type": "VEC3"
    },
    {
      "bufferView": 2,
      "byteOffset": 805944,
      "componentType": 5126,
      "count": 212,
      "max": [
        1,
        0.95115101337432861,
        0.99673497676849365
      ],
      "min": [
        -1,
        -0.95114386081695557,
        -0.99673885107040405
      ],
      "type": "VEC3"
    },
    {
      "bufferView": 3,
      "byteOffset": 535600,
      "componentType": 5126,
      "count": 212,
      "max": [
        0,
        0,
        0,
        1
      ],
      "min": [
        0,
        0,
        0,
        1
      ],
      "type": "VEC4"
    },
    {
      "bufferView": 0,
      "byteOffset": 384960,
      "componentType": 5125,
      "count": 324,
      "max": [
        211
      ],
      "min": [
        0
      ],
      "type": "SCALAR"
    },
    {
      "bufferView": 2,
      "byteOffset": 808488,
      "componentType": 5126,
      "count": 1160,
      "max": [
        94.359100341796875,
        61.703800201416016,
        11.76609992980957
      ],
      "min": [
        -94.896697998046875,
        -71.327499389648438,
        -281.385986328125
      ],
      "type": "VEC3"
    },
    {
      "bufferView": 2,
      "byteOffset": 822408,
      "componentType": 5126,
      "count": 1160,
      "max": [
        0.98635178804397583,
        1,
        1
      ],
      "min": [
        -0.9791218638420105,
        -1,
        -1
      ],
      "type": "VEC3"
    },
    {
      "bufferView": 3,
      "byteOffset": 538992,
      "componentType": 5126,
      "count": 1160,
      "max": [
        0,
        0,
        0,
        1
      ],
      "min": [
        0,
        0,
        0,
        1
      ],
      "type": "VEC4"
    },
    {
      "bufferView": 1,
      "byteOffset": 257400,
      "componentType": 5126,
      "count": 1160,
      "max": [
        -1,
        2
      ],
      "min": [
        -1,
        2
      ],
      "type": "VEC2"
    },
    {
      "bufferView": 0,
      "byteOffset": 386256,
      "componentType": 5125,
      "count": 2481,
      "max": [
        1159
      ],
      "min": [
        0
      ],
      "type": "SCALAR"
    },
    {
      "bufferView": 2,
      "byteOffset": 836328,
      "componentType": 5126,
      "count": 24,
      "max": [
        33.018199920654297,
        84.104698181152344,
        7.1076197624206543
      ],
      "min": [
        -32.460300445556641,
        -99.245597839355469,
        -1.2282799843887915e-07
      ],
      "type": "VEC3"
    },
    {
      "bufferView": 2,
      "byteOffset": 836616,
      "componentType": 5126,
      "count": 24,
      "max": [
        1,
        1,
        1
      ],
      "min": [
        -1,
        -1,
        -1
      ],
      "type": "VEC3"
    },
    {
      "bufferView": 3,
      "byteOffset": 557552,
      "componentType": 5126,
      "count": 24,
      "max": [
        0,
        0,
        0,
        1
      ],
      "min": [
        0,
        0,
        0,
        1
      ],
      "type": "VEC4"
    },
    {
      "bufferView": 1,
      "byteOffset": 266680,
      "componentType": 5126,
      "count": 24,
      "max": [
        -1,
        2
      ],
      "min": [
        -1,
        2
      ],
      "type": "VEC2"
    },
    {
      "bufferView": 0,
      "byteOffset": 396180,
      "componentType": 5125,
      "count": 36,
      "max": [
        23
      ],
      "min": [
        0
      ],
      "type": "SCALAR"
    },
    {
      "bufferView": 2,
      "byteOffset": 836904,
      "componentType": 5126,
      "count": 24,
      "max": [
        36.308200836181641,
        84.104698181152344,
        5.0023698806762695
      ],
      "min": [
        -35.515300750732422,
        -99.245597839355469,
        -1.5222600268316455e-05
      ],
      "type": "VEC3"
    },
    {
      "bufferView": 2,
      "byteOffset": 837192,
      "componentType": 5126,
      "count": 24,
      "max": [
        1,
        1,
        1
      ],
      "min": [
        -1,
        -1,
        -1
      ],
      "type": "VEC3"
    },
    {
      "bufferView": 3,
      "byteOffset": 557936,
      "componentType": 5126,
      "count": 24,
      "max": [
        0,
        0,
        0,
        1
      ],
      "min": [
        0,
        0,
        0,
        1
      ],
      "type": "VEC4"
    },
    {
      "bufferView": 1,
      "byteOffset": 266872,
      "componentType": 5126,
      "count": 24,
      "max": [
        -1,
        2
      ],
      "min": [
        -1,
        2
      ],
      "type": "VEC2"
    },
    {
      "bufferView": 0,
      "byteOffset": 396324,
      "componentType": 5125,
      "count": 36,
      "max": [
        23
      ],
      "min": [
        0
      ],
      "type": "SCALAR"
    }
  ],
  "asset": {
    "extras": {
      "author": "StarWars-Universe (https://sketchfab.com/SWU)",
      "license": "CC-BY-NC-SA-4.0 (http://creativecommons.org/licenses/by-nc-sa/4.0/)",
      "source": "https://sketchfab.com/models/ecd88edc4e5f42cc977c265316ed7015",
      "title": "Imperial Shuttle"
    },
    "generator": "Sketchfab-3.20.7",
    "version": "2.0"
  },
  "bufferViews": [
    {
      "buffer": 0,
      "byteLength": 396468,
      "byteOffset": 0,
      "name": "floatBufferViews",
      "target": 34963
    },
    {
      "buffer": 0,
      "byteLength": 267064,
      "byteOffset": 396468,
      "byteStride": 8,
      "name": "floatBufferViews",
      "target": 34962
    },
    {
      "buffer": 0,
      "byteLength": 837480,
      "byteOffset": 663532,
      "byteStride": 12,
      "name": "floatBufferViews",
      "target": 34962
    },
    {
      "buffer": 0,
      "byteLength": 558320,
      "byteOffset": 1501012,
      "byteStride": 16,
      "name": "floatBufferViews",
      "target": 34962
    }
  ],
  "buffers": [
    {
      "byteLength": 2059332,
      "uri": "scene.bin"
    }
  ],
  "images": [
    {
      "uri": "textures/CORPO_SOTTO_baseColor.jpeg"
    },
    {
      "uri": "textures/lower_wing__up_baseColor.jpeg"
    },
    {
      "uri": "textures/SPORCO2_baseColor.jpeg"
    },
    {
      "uri": "textures/Base_wing_baseColor.jpeg"
    },
    {
      "uri": "textures/Muso_baseColor.jpeg"
    },
    {
      "uri": "textures/Upper_wing_baseColor.jpeg"
    },
    {
      "uri": "textures/Front_baseColor.jpeg"
    },
    {
      "uri": "textures/Lower_wing_baseColor.jpeg"
    },
    {
      "uri": "textures/Ala_Sup__sotto_baseColor.jpeg"
    },
    {
      "uri": "textures/lower_wing__up_2_baseColor.jpeg"
    },
    {
      "uri": "textures/Sporco_baseColor.jpeg"
    }
  ],
  "materials": [
    {
      "doubleSided": true,
      "emissiveFactor": [
        0,
        0,
        0
      ],
      "name": "Base_wing",
      "pbrMetallicRoughness": {
        "baseColorFactor": [
          1,
          1,
          1,
          1
        ],
        "baseColorTexture": {
          "index": 3,
          "texCoord": 0
        },
        "metallicFactor": 0,
        "roughnessFactor": 0.59999999999999998
      }
    },
    {
      "doubleSided": true,
      "emissiveFactor": [
        0,
        0,
        0
      ],
      "name": "Upper_wing",
      "pbrMetallicRoughness": {
        "baseColorFactor": [
          1,
          1,
          1,
          1
        ],
        "baseColorTexture": {
          "index": 5,
          "texCoord": 0
        },
        "metallicFactor": 0,
        "roughnessFactor": 0.59999999999999998
      }
    },
    {
      "doubleSided": true,
      "emissiveFactor": [
        0,
        0,
        0
      ],
      "name": "Sporco",
      "pbrMetallicRoughness": {
        "baseColorFactor": [
          0.63071283300000003,
          0.63071283300000003,
          0.63071283300000003,
          1
        ],
        "baseColorTexture": {
          "index": 10,
          "texCoord": 0
        },
        "metallicFactor": 0,
        "roughnessFactor": 0.41687635509999998
      }
    },
    {
      "doubleSided": true,
      "emissiveFactor": [
        0,
        0,
        0
      ],
      "name": "Lower_wing",
      "pbrMetallicRoughness": {
        "baseColorFactor": [
          1,
          1,
          1,
          1
        ],
        "baseColorTexture": {
          "index": 7,
          "texCoord": 0
        },
        "metallicFactor": 0,
        "roughnessFactor": 0.59999999999999998
      }
    },
    {
      "doubleSided": true,
      "emissiveFactor": [
        0,
        0,
        0
      ],
      "name": "lower_wing__up_2",
      "pbrMetallicRoughness": {
        "baseColorFactor": [
          1,
          1,
          1,
          1
        ],
        "baseColorTexture": {
          "index": 9,
          "texCoord": 0
        },
        "metallicFactor": 0,
        "roughnessFactor": 0.59999999999999998
      }
    },
    {
      "doubleSided": true,
      "emissiveFactor": [
        0,
        0,
        0
      ],
      "name": "lower_wing__up",
      "pbrMetallicRoughness": {
        "baseColorFactor": [
          1,
          1,
          1,
          1
        ],
        "baseColorTexture": {
          "index": 1,
          "texCoord": 0
        },
        "metallicFactor": 0,
        "roughnessFactor": 0.59999999999999998
      }
    },
    {
      "doubleSided": true,
      "emissiveFactor": [
        0,
        0,
        0
      ],
      "name": "Ala_Sup__sotto",
      "pbrMetallicRoughness": {
        "baseColorFactor": [
          1,
          1,
          1,
          1
        ],
        "baseColorTexture": {
          "index": 8,
          "texCoord": 0
        },
        "metallicFactor": 0.18417195250000001,
        "roughnessFactor": 0.65587006569999995
      }
    },
    {
      "doubleSided": true,
      "emissiveFactor": [
        0,
        0,
        0
      ],
      "name": "Default",
      "pbrMetallicRoughness": {
        "baseColorFactor": [
          0.69999999999999996,
          0.69999999999999996,
          0.69999999999999996,
          1
        ],
        "metallicFactor": 0,
        "roughnessFactor": 0.59999999999999998
      }
    },
    {
      "doubleSided": true,
      "emissiveFactor": [
        0,
        0,
        0
      ],
      "name": "CORPO_SOTTO",
      "pbrMetallicRoughness": {
        "baseColorFactor": [
          1,
          1,
          1,
          1
        ],
        "baseColorTexture": {
          "index": 0,
          "texCoord": 0
        },
        "metallicFactor": 0,
        "roughnessFactor": 0.59999999999999998
      }
    },
    {
      "doubleSided": true,
      "emissiveFactor": [
        0,
        0,
        0
      ],
      "name": "Front",
      "pbrMetallicRoughness": {
        "baseColorFactor": [
          1,
          1,
          1,
          1
        ],
        "baseColorTexture": {
          "index": 6,
          "texCoord": 0
        },
        "metallicFactor": 0,
        "roughnessFactor": 0.59999999999999998
      }
    },
    {
      "doubleSided": true,
      "emissiveFactor": [
        0.276069393,
        1,
        1
      ],
      "name": "GLOW",
      "pbrMetallicRoughness": {
        "baseColorFactor": [
          0.098039200000000007,
          0.54509799999999997,
          1,
          1
        ],
        "metallicFactor": 0,
        "roughnessFactor": 0.59999999999999998
      }
    },
    {
      "doubleSided": true,
      "emissiveFactor": [
        0,
        0,
        0
      ],
      "name": "SPORCO2",
      "pbrMetallicRoughness": {
        "baseColorFactor": [
          1,
          1,
          1,
          1
        ],
        "baseColorTexture": {
          "index": 2,
          "texCoord": 0
        },
        "metallicFactor": 0,
        "roughnessFactor": 0.59999999999999998
      }
    },
    {
      "doubleSided": true,
      "emissiveFactor": [
        0,
        0,
        0
      ],
      "name": "Muso",
      "pbrMetallicRoughness": {
        "baseColorFactor": [
          1,
          1,
          1,
          1
        ],
        "baseColorTexture": {
          "index": 4,
          "texCoord": 0
        },
        "metallicFactor": 0,
        "roughnessFactor": 0.59999999999999998
      }
    },
    {
      "doubleSided": true,
      "emissiveFactor": [
        0,
        0,
        0
      ],
      "name": "material",
      "pbrMetallicRoughness": {
        "baseColorFactor": [
          0,
          0,
          0,
          1
        ],
        "metallicFactor": 1,
        "roughnessFactor": 0
      }
    }
  ],
  "meshes": [
    {
      "name": "Material1",
      "primitives": [
        {
          "attributes": {
            "NORMAL": 1,
            "POSITION": 0,
            "TANGENT": 2,
            "TEXCOORD_0": 3
          },
          "indices": 4,
          "material": 0,
          "mode": 4
        }
      ]
    },
    {
      "name": "Material1",
      "primitives": [
        {
          "attributes": {
            "NORMAL": 6,
            "POSITION": 5,
            "TANGENT": 7,
            "TEXCOORD_0": 8
          },
          "indices": 9,
          "material": 1,
          "mode": 4
        }
      ]
    },
    {
      "name": "Material1",
      "primitives": [
        {
          "attributes": {
            "NORMAL": 11,
            "POSITION": 10,
            "TANGENT": 12,
            "TEXCOORD_0": 13
          },
          "indices": 14,
          "material": 2,
          "mode": 4
        }
      ]
    },
    {
      "name": "Material1",
      "primitives": [
        {
          "attributes": {
            "NORMAL": 16,
            "POSITION": 15,
            "TANGENT": 17,
            "TEXCOORD_0": 18
          },
          "indices": 19,
          "material": 2,
          "mode": 4
        }
      ]
    },
    {
      "name": "Material1",
      "primitives": [
        {
          "attributes": {
            "NORMAL": 21,
            "POSITION": 20,
            "TANGENT": 22,
            "TEXCOORD_0": 23
          },
          "indices": 24,
          "material": 2,
          "mode": 4
        }
      ]
    },
    {
      "name": "Material1",
      "primitives": [
        {
          "attributes": {
            "NORMAL": 26,
            "POSITION": 25,
            "TANGENT": 27,
            "TEXCOORD_0": 28
          },
          "indices": 29,
          "material": 2,
          "mode": 4
        }
      ]
    },
    {
      "name": "Material1",
      "primitives": [
        {
          "attributes": {
            "NORMAL": 31,
            "POSITION": 30,
            "TANGENT": 32,
            "TEXCOORD_0": 33
          },
          "indices": 34,
          "material": 3,
          "mode": 4
        }
      ]
    },
    {
      "name": "Material2",
      "primitives": [
        {
          "attributes": {
            "NORMAL": 36,
            "POSITION": 35,
            "TANGENT": 37,
            "TEXCOORD_0": 38
          },
          "indices": 39,
          "material": 4,
          "mode": 4
        }
      ]
    },
    {
      "name": "Material1",
      "primitives": [
        {
          "attributes": {
            "NORMAL": 41,
            "POSITION": 40,
            "TANGENT": 42,
            "TEXCOORD_0": 43
          },
          "indices": 44,
          "material": 5,
          "mode": 4
        }
      ]
    },
    {
      "name": "Material1",
      "primitives": [
        {
          "attributes": {
            "NORMAL": 46,
            "POSITION": 45,
            "TANGENT": 47,
            "TEXCOORD_0": 48
          },
          "indices": 49,
          "material": 2,
          "mode": 4
        }
      ]
    },
    {
      "name": "Material1",
      "primitives": [
        {
          "attributes": {
            "NORMAL": 51,
            "POSITION": 50,
            "TANGENT": 52,
            "TEXCOORD_0": 53
          },
          "indices": 54,
          "material": 2,
          "mode": 4
        }
      ]
    },
    {
      "name": "Material1",
      "primitives": [
        {
          "attributes": {
            "NORMAL": 56,
            "POSITION": 55,
            "TANGENT": 57,
            "TEXCOORD_0": 58
          },
          "indices": 59,
          "material": 2,
          "mode": 4
        }
      ]
    },
    {
      "name": "Material1",
      "primitives": [
        {
          "attributes": {
            "NORMAL": 61,
            "POSITION": 60,
            "TANGENT": 62,
            "TEXCOORD_0": 63
          },
          "indices": 64,
          "material": 2,
          "mode": 4
        }
      ]
    },
    {
      "name": "Material1",
      "primitives": [
        {
          "attributes": {
            "NORMAL": 66,
            "POSITION": 65,
            "TANGENT": 67,
            "TEXCOORD_0": 68
          },
          "indices": 69,
          "material": 3,
          "mode": 4
        }
      ]
    },
    {
      "name": "Material2",
      "primitives": [
        {
          "attributes": {
            "NORMAL": 71,
            "POSITION": 70,
            "TANGENT": 72,
            "TEXCOORD_0": 73
          },
          "indices": 74,
          "material": 4,
          "mode": 4
        }
      ]
    },
    {
      "name": "Material1",
      "primitives": [
        {
          "attributes": {
            "NORMAL": 76,
            "POSITION": 75,
            "TANGENT": 77,
            "TEXCOORD_0": 78
          },
          "indices": 79,
          "material": 5,
          "mode": 4
        }
      ]
    },
    {
      "name": "Material2",
      "primitives": [
        {
          "attributes": {
            "NORMAL": 81,
            "POSITION": 80,
            "TANGENT": 82,
            "TEXCOORD_0": 83
          },
          "indices": 84,
          "material": 6,
          "mode": 4
        }
      ]
    },
    {
      "name": "Material1",
      "primitives": [
        {
          "attributes": {
            "NORMAL": 86,
            "POSITION": 85,
            "TANGENT": 87
          },
          "indices": 88,
          "material": 7,
          "mode": 4
        }
      ]
    },
    {
      "name": "Material2",
      "primitives": [
        {
          "attributes": {
            "NORMAL": 90,
            "POSITION": 89,
            "TANGENT": 91,
            "TEXCOORD_0": 92
          },
          "indices": 93,
          "material": 6,
          "mode": 4
        }
      ]
    },
    {
      "name": "Material1",
      "primitives": [
        {
          "attributes": {
            "NORMAL": 95,
            "POSITION": 94,
            "TANGENT": 96
          },
          "indices": 97,
          "material": 7,
          "mode": 4
        }
      ]
    },
    {
      "name": "Material2",
      "primitives": [
        {
          "attributes": {
            "NORMAL": 99,
            "POSITION": 98,
            "TANGENT": 100,
            "TEXCOORD_0": 101
          },
          "indices": 102,
          "material": 6,
          "mode": 4
        }
      ]
    },
    {
      "name": "Material1",
      "primitives": [
        {
          "attributes": {
            "NORMAL": 104,
            "POSITION": 103,
            "TANGENT": 105
          },
          "indices": 106,
          "material": 7,
          "mode": 4
        }
      ]
    },
    {
      "name": "Material2",
      "primitives": [
        {
          "attributes": {
            "NORMAL": 108,
            "POSITION": 107,
            "TANGENT": 109,
            "TEXCOORD_0": 110
          },
          "indices": 111,
          "material": 6,
          "mode": 4
        }
      ]
    },
    {
      "name": "Material1",
      "primitives": [
        {
          "attributes": {
            "NORMAL": 113,
            "POSITION": 112,
            "TANGENT": 114
          },
          "indices": 115,
          "material": 7,
          "mode": 4
        }
      ]
    },
    {
      "name": "Material1",
      "primitives": [
        {
          "attributes": {
            "NORMAL": 117,
            "POSITION": 116,
            "TANGENT": 118,
            "TEXCOORD_0": 119
          },
          "indices": 120,
          "material": 8,
          "mode": 4
        }
      ]
    },
    {
      "name": "Material1",
      "primitives": [
        {
          "attributes": {
            "NORMAL": 122,
            "POSITION": 121,
            "TANGENT": 123,
            "TEXCOORD_0": 124
          },
          "indices": 125,
          "material": 8,
          "mode": 4
        }
      ]
    },
    {
      "name": "Material2",
      "primitives": [
        {
          "attributes": {
            "NORMAL": 127,
            "POSITION": 126,
            "TANGENT": 128,
            "TEXCOORD_0": 129
          },
          "indices": 130,
          "material": 6,
          "mode": 4
        }
      ]
    },
    {
      "name": "Material1",
      "primitives": [
        {
          "attributes": {
            "NORMAL": 132,
            "POSITION": 131,
            "TANGENT": 133
          },
          "indices": 134,
          "material": 7,
          "mode": 4
        }
      ]
    },
    {
      "name": "Material3",
      "primitives": [
        {
          "attributes": {
            "NORMAL": 136,
            "POSITION": 135,
            "TANGENT": 137,
            "TEXCOORD_0": 138
          },
          "indices": 139,
          "material": 8,
          "mode": 4
        }
      ]
    },
    {
      "name": "Material5",
      "primitives": [
        {
          "attributes": {
            "NORMAL": 141,
            "POSITION": 140,
            "TANGENT": 142,
            "TEXCOORD_0": 143
          },
          "indices": 144,
          "material": 9,
          "mode": 4
        }
      ]
    },
    {
      "name": "Material4",
      "primitives": [
        {
          "attributes": {
            "NORMAL": 146,
            "POSITION": 145,
            "TANGENT": 147
          },
          "indices": 148,
          "material": 10,
          "mode": 4
        }
      ]
    },
    {
      "name": "Material1",
      "primitives": [
        {
          "attributes": {
            "NORMAL": 150,
            "POSITION": 149,
            "TANGENT": 151,
            "TEXCOORD_0": 152
          },
          "indices": 153,
          "material": 11,
          "mode": 4
        }
      ]
    },
    {
      "name": "Material2",
      "primitives": [
        {
          "attributes": {
            "NORMAL": 155,
            "POSITION": 154,
            "TANGENT": 156,
            "TEXCOORD_0": 157
          },
          "indices": 158,
          "material": 12,
          "mode": 4
        }
      ]
    },
    {
      "name": "Material1",
      "primitives": [
        {
          "attributes": {
            "NORMAL": 160,
            "POSITION": 159,
            "TANGENT": 161
          },
          "indices": 162,
          "material": 13,
          "mode": 4
        }
      ]
    },
    {
      "name": "Material1",
      "primitives": [
        {
          "attributes": {
            "NORMAL": 164,
            "POSITION": 163,
            "TANGENT": 165,
            "TEXCOORD_0": 166
          },
          "indices": 167,
          "material": 11,
          "mode": 4
        }
      ]
    },
    {
      "name": "Material2",
      "primitives": [
        {
          "attributes": {
            "NORMAL": 169,
            "POSITION": 168,
            "TANGENT": 170
          },
          "indices": 171,
          "material": 7,
          "mode": 4
        }
      ]
    },
    {
      "name": "Material1",
      "primitives": [
        {
          "attributes": {
            "NORMAL": 173,
            "POSITION": 172,
            "TANGENT": 174,
            "TEXCOORD_0": 175
          },
          "indices": 176,
          "material": 11,
          "mode": 4
        }
      ]
    },
    {
      "name": "Material1",
      "primitives": [
        {
          "attributes": {
            "NORMAL": 178,
            "POSITION": 177,
            "TANGENT": 179,
            "TEXCOORD_0": 180
          },
          "indices": 181,
          "material": 11,
          "mode": 4
        }
      ]
    },
    {
      "name": "Material1",
      "primitives": [
        {
          "attributes": {
            "NORMAL": 183,
            "POSITION": 182,
            "TANGENT": 184,
            "TEXCOORD_0": 185
          },
          "indices": 186,
          "material": 11,
          "mode": 4
        }
      ]
    }
  ],
  "nodes": [
    {
      "children": [
        1
      ],
      "name": "RootNode (gltf orientation matrix)",
      "rotation": [
        -0.70710678118654746,
        -0,
        -0,
        0.70710678118654757
      ]
    },
    {
      "children": [
        2
      ],
      "name": "RootNode (model correction matrix)"
    },
    {
      "children": [
        3
      ],
      "matrix": [
        1,
        0,
        0,
        0,
        0,
        -4.3711390063094768e-08,
        0.999999999999999,
        0,
        0,
        -0.999999999999999,
        -4.3711390063094768e-08,
        0,
        0,
        0,
        0,
        1
      ],
      "name": "Collada visual scene group"
    },
    {
      "children": [
        4,
        9,
        23,
        37,
        62,
        65,
        67,
        70,
        72,
        74
      ],
      "matrix": [
        1,
        0,
        0,
        0,
        0,
        2.2204460492503131e-16,
        -1,
        0,
        0,
        1,
        2.2204460492503131e-16,
        0,
        147.34500122070312,
        -34.026798248291016,
        -61.868698120117188,
        1
      ],
      "name": "Shutlle"
    },
    {
      "children": [
        5,
        7
      ],
      "matrix": [
        1,
        0,
        0,
        0,
        0,
        1,
        0,
        0,
        0,
        0,
        1,
        0,
        -0.15310700237751007,
        -155.656005859375,
        456.22299194335938,
        1
      ],
      "name": "upper_wing"
    },
    {
      "children": [
        6
      ],
      "matrix": [
        -92.48699951171875,
        -1.1326390791476918e-14,
        0,
        0,
        1.1326390791476918e-14,
        -92.48699951171875,
        0,
        0,
        0,
        0,
        92.48699951171875,
        0,
        -0.063720703125,
        92.391098022460938,
        -109.99900054931641,
        1
      ],
      "name": "Base"
    },
    {
      "mesh": 0,
      "name": "Material1"
    },
    {
      "children": [
        8
      ],
      "matrix": [
        -92.48699951171875,
        -1.1326390791476918e-14,
        0,
        0,
        1.1326390791476918e-14,
        -92.48699951171875,
        0,
        0,
        0,
        0,
        92.48699951171875,
        0,
        -0.063720703125,
        84.200698852539062,
        -109.99900054931641,
        1
      ],
      "name": "Wing"
    },
    {
      "mesh": 1,
      "name": "Material1"
    },
    {
      "children": [
        10,
        12,
        14,
        16,
        18,
        20
      ],
      "matrix": [
        1,
        0,
        0,
        0,
        0,
        1,
        0,
        0,
        0,
        0,
        1,
        0,
        424.40399169921875,
        -113.93199920654297,
        -332.4849853515625,
        1
      ],
      "name": "lower_wing"
    },
    {
      "children": [
        11
      ],
      "matrix": [
        -2.5761623758733601,
        0.1346216293322435,
        -0.046141902346333981,
        0,
        -0.13499859834212488,
        -2.5764772236138751,
        0.020128083522347368,
        0,
        -0.045027066103269682,
        0.022511735085350353,
        2.5795988894018498,
        0,
        -217.03799438476562,
        81.633796691894531,
        171.07000732421875,
        1
      ],
      "name": "Cannoncino"
    },
    {
      "mesh": 2,
      "name": "Material1"
    },
    {
      "children": [
        13
      ],
      "matrix": [
        92.48699951171875,
        -1.1326390791476914e-14,
        1.1326391113164181e-14,
        0,
        -1.1326391113164181e-14,
        -92.486999511718707,
        2.6267758413350578e-06,
        0,
        -1.1326390791476914e-14,
        2.6267758413350578e-06,
        92.486999511718707,
        0,
        -0.049804698675870895,
        -72.677200317382812,
        -0.0068359398283064365,
        1
      ],
      "name": "Ingranagg0"
    },
    {
      "mesh": 3,
      "name": "Material1"
    },
    {
      "children": [
        15
      ],
      "matrix": [
        92.48699951171875,
        -1.1326390791476914e-14,
        1.1326391113164181e-14,
        0,
        -1.1326391113164181e-14,
        -92.486999511718707,
        2.6267758413350578e-06,
        0,
        -1.1326390791476914e-14,
        2.6267758413350578e-06,
        92.486999511718707,
        0,
        -0.049804698675870895,
        -72.677200317382812,
        -0.0068359398283064365,
        1
      ],
      "name": "Ingranagg1"
    },
    {
      "mesh": 4,
      "name": "Material1"
    },
    {
      "children": [
        17
      ],
      "matrix": [
        92.48699951171875,
        -1.1326390791476914e-14,
        1.1326391113164181e-14,
        0,
        -1.1326391113164181e-14,
        -92.486999511718707,
        2.6267758413350578e-06,
        0,
        -1.1326390791476914e-14,
        2.6267758413350578e-06,
        92.486999511718707,
        0,
        -0.049804698675870895,
        -72.677200317382812,
        -0.0068359398283064365,
        1
      ],
      "name": "Ingranaggi"
    },
    {
      "mesh": 5,
      "name": "Material1"
    },
    {
      "children": [
        19
      ],
      "matrix": [
        1.4064474076071193e-10,
        1,
        -2.2094785098009874e-13,
        0,
        0.0015725410079272528,
        -2.2204460492503131e-16,
        0.99999876355662476,
        0,
        0.99999876355662476,
        -1.4064491431101027e-10,
        -0.0015725410079272528,
        0,
        -207.24000549316406,
        42.713401794433594,
        176.33900451660156,
        1
      ],
      "name": "lower"
    },
    {
      "mesh": 6,
      "name": "Material1"
    },
    {
      "children": [
        21,
        22
      ],
      "matrix": [
        1.4064474076071193e-10,
        1,
        -2.2094785098009874e-13,
        0,
        0.0015725410079272528,
        -2.2204460492503131e-16,
        0.99999876355662476,
        0,
        0.99999876355662476,
        -1.4064491431101027e-10,
        -0.0015725410079272528,
        0,
        -207.26499938964844,
        42.720199584960938,
        176.32400512695312,
        1
      ],
      "name": "Upper"
    },
    {
      "mesh": 7,
      "name": "Material2"
    },
    {
      "mesh": 8,
      "name": "Material1"
    },
    {
      "children": [
        24,
        26,
        28,
        30,
        32,
        34
      ],
      "matrix": [
        -0.99999999999997158,
        -2.3841895713943111e-07,
        -1.2246467991473184e-16,
        0,
        -2.3841895713943111e-07,
        0.99999999999997158,
        -2.9197901271685432e-23,
        0,
        -1.2246467991473532e-16,
        0,
        1,
        0,
        -424.45700073242188,
        -113.93199920654297,
        -332.4849853515625,
        1
      ],
      "name": "lower_wing01"
    },
    {
      "children": [
        25
      ],
      "matrix": [
        -2.5761623758733601,
        0.1346216293322435,
        -0.046141902346333981,
        0,
        -0.13499859834212488,
        -2.5764772236138751,
        0.020128083522347368,
        0,
        -0.045027066103269682,
        0.022511735085350353,
        2.5795988894018498,
        0,
        -217.03799438476562,
        81.633796691894531,
        171.07000732421875,
        1
      ],
      "name": "Cannoncino01"
    },
    {
      "mesh": 9,
      "name": "Material1"
    },
    {
      "children": [
        27
      ],
      "matrix": [
        92.48699951171875,
        -1.1326390791476918e-14,
        1.1326390791476918e-14,
        0,
        -1.1326390791476918e-14,
        -92.48699951171875,
        -1.3870828228674264e-30,
        0,
        -1.1326390791476918e-14,
        0,
        92.48699951171875,
        0,
        -0.049813099205493927,
        -72.677200317382812,
        -0.0068359398283064365,
        1
      ],
      "name": "Ingranagg02"
    },
    {
      "mesh": 10,
      "name": "Material1"
    },
    {
      "children": [
        29
      ],
      "matrix": [
        92.48699951171875,
        -1.1326390791476918e-14,
        1.1326390791476918e-14,
        0,
        -1.1326390791476918e-14,
        -92.48699951171875,
        -1.3870828228674264e-30,
        0,
        -1.1326390791476918e-14,
        0,
        92.48699951171875,
        0,
        -0.049813099205493927,
        -72.677200317382812,
        -0.0068359398283064365,
        1
      ],
      "name": "Ingranagg03"
    },
    {
      "mesh": 11,
      "name": "Material1"
    },
    {
      "children": [
        31
      ],
      "matrix": [
        92.48699951171875,
        -1.1326390791476918e-14,
        1.1326390791476918e-14,
        0,
        -1.1326390791476918e-14,
        -92.48699951171875,
        -1.3870828228674264e-30,
        0,
        -1.1326390791476918e-14,
        0,
        92.48699951171875,
        0,
        -0.049813099205493927,
        -72.677200317382812,
        -0.0068359398283064365,
        1
      ],
      "name": "Ingranaggi01"
    },
    {
      "mesh": 12,
      "name": "Material1"
    },
    {
      "children": [
        33
      ],
      "matrix": [
        1.4064456622800254e-10,
        1,
        -2.2094757651991663e-13,
        0,
        0.0015725410079272528,
        -2.2204460492503131e-16,
        0.99999876355662476,
        0,
        0.99999876355662476,
        -1.4064473977808506e-10,
        -0.0015725410079272528,
        0,
        -207.24000549316406,
        42.713401794433594,
        176.33900451660156,
        1
      ],
      "name": "lower01"
    },
    {
      "mesh": 13,
      "name": "Material1"
    },
    {
      "children": [
        35,
        36
      ],
      "matrix": [
        1.4064456622800254e-10,
        1,
        -2.2094757651991663e-13,
        0,
        0.0015725410079272528,
        -2.2204460492503131e-16,
        0.99999876355662476,
        0,
        0.99999876355662476,
        -1.4064473977808506e-10,
        -0.0015725410079272528,
        0,
        -207.26499938964844,
        42.720199584960938,
        176.32400512695312,
        1
      ],
      "name": "Upper01"
    },
    {
      "mesh": 14,
      "name": "Material2"
    },
    {
      "mesh": 15,
      "name": "Material1"
    },
    {
      "children": [
        38,
        41,
        44,
        47,
        50,
        52,
        54,
        60
      ],
      "matrix": [
        1,
        0,
        0,
        0,
        0,
        1,
        0,
        0,
        0,
        0,
        1,
        0,
        -9.001500129699707,
        -224.26199340820312,
        69.540603637695312,
        1
      ],
      "name": "Body"
    },
    {
      "children": [
        39,
        40
      ],
      "matrix": [
        -92.48699951171875,
        -1.1319491681134381e-14,
        -3.9526755746291965e-16,
        0,
        1.1326402937784588e-14,
        -92.430763122269965,
        -3.227608005990604,
        0,
        0,
        -3.227608005990604,
        92.430763122269965,
        0,
        -191.47999572753906,
        114.77799987792969,
        -170.68099975585938,
        1
      ],
      "name": "tappo_sx_f"
    },
    {
      "mesh": 16,
      "name": "Material2"
    },
    {
      "mesh": 17,
      "name": "Material1"
    },
    {
      "children": [
        42,
        43
      ],
      "matrix": [
        -92.48699951171875,
        -1.1319491681134381e-14,
        5.241036544762148e-14,
        0,
        1.3141609873420383e-14,
        -92.4306640005547,
        3.2276045447399233,
        0,
        5.1983414549328378e-14,
        3.2276045447399233,
        92.4306640005547,
        0,
        -191.47999572753906,
        56.997798919677734,
        -173.15199279785156,
        1
      ],
      "name": "tappo_sx_b"
    },
    {
      "mesh": 18,
      "name": "Material2"
    },
    {
      "mesh": 19,
      "name": "Material1"
    },
    {
      "children": [
        45,
        46
      ],
      "matrix": [
        -92.48699951171875,
        -1.1319491681134381e-14,
        -3.9526755746291965e-16,
        0,
        1.1326402937784588e-14,
        -92.430763122269965,
        -3.227608005990604,
        0,
        0,
        -3.227608005990604,
        92.430763122269965,
        0,
        209.05000305175781,
        114.77799987792969,
        -170.67999267578125,
        1
      ],
      "name": "tappo_dx_f"
    },
    {
      "mesh": 20,
      "name": "Material2"
    },
    {
      "mesh": 21,
      "name": "Material1"
    },
    {
      "children": [
        48,
        49
      ],
      "matrix": [
        -92.48699951171875,
        -1.1319491681134381e-14,
        5.241036544762148e-14,
        0,
        1.3141609873420383e-14,
        -92.4306640005547,
        3.2276045447399233,
        0,
        5.1983414549328378e-14,
        3.2276045447399233,
        92.4306640005547,
        0,
        209.04899597167969,
        56.996601104736328,
        -173.15199279785156,
        1
      ],
      "name": "tappo_dx_b"
    },
    {
      "mesh": 22,
      "name": "Material2"
    },
    {
      "mesh": 23,
      "name": "Material1"
    },
    {
      "children": [
        51
      ],
      "matrix": [
        -92.48699951171875,
        -1.1326390791476918e-14,
        0,
        0,
        1.1326390791476918e-14,
        -92.48699951171875,
        0,
        0,
        0,
        0,
        92.48699951171875,
        0,
        8.7849102020263672,
        154.26699829101562,
        276.68399047851562,
        1
      ],
      "name": "Faretto_si"
    },
    {
      "mesh": 24,
      "name": "Material1"
    },
    {
      "children": [
        53
      ],
      "matrix": [
        -92.48699951171875,
        -1.1326390791476918e-14,
        0,
        0,
        1.1326390791476918e-14,
        -92.48699951171875,
        0,
        0,
        0,
        0,
        92.48699951171875,
        0,
        8.7849102020263672,
        154.26699829101562,
        276.68399047851562,
        1
      ],
      "name": "Faretto_de"
    },
    {
      "mesh": 25,
      "name": "Material1"
    },
    {
      "children": [
        55,
        56,
        57,
        58,
        59
      ],
      "matrix": [
        -92.48699951171875,
        -1.1326390791476918e-14,
        0,
        0,
        1.1326390791476918e-14,
        -92.48699951171875,
        0,
        0,
        0,
        0,
        92.48699951171875,
        0,
        8.7849102020263672,
        154.26699829101562,
        276.68399047851562,
        1
      ],
      "name": "corpo"
    },
    {
      "mesh": 26,
      "name": "Material2"
    },
    {
      "mesh": 27,
      "name": "Material1"
    },
    {
      "mesh": 28,
      "name": "Material3"
    },
    {
      "mesh": 29,
      "name": "Material5"
    },
    {
      "mesh": 30,
      "name": "Material4"
    },
    {
      "children": [
        61
      ],
      "matrix": [
        92.477362884870885,
        -1.3350773012317578,
        -0.0010678499553454909,
        0,
        -0.58624181450403012,
        -40.67389491933907,
        83.061146256423697,
        0,
        -1.1994819291770775,
        -83.05248498192509,
        -40.678119502186973,
        0,
        -4.666259765625,
        -330.41400146484375,
        -158.29200744628906,
        1
      ],
      "name": "Luce_Motor"
    },
    {
      "name": "Luce_Motor"
    },
    {
      "children": [
        63,
        64
      ],
      "matrix": [
        0.99999999999998535,
        -1.4151259078509439e-08,
        -1.7017772138986523e-07,
        0,
        -3.4285630925178236e-08,
        0.81671818261741924,
        -0.26938438913812118,
        0,
        1.6425884343645009e-07,
        0.30986669575499515,
        0.93945222817243712,
        0,
        7.9577298164367676,
        155.38200378417969,
        65.643096923828125,
        1
      ],
      "name": "Front"
    },
    {
      "mesh": 31,
      "name": "Material1"
    },
    {
      "mesh": 32,
      "name": "Material2"
    },
    {
      "children": [
        66
      ],
      "matrix": [
        -0.97087401151657104,
        1.176718308641517e-16,
        8.7742162698480586e-17,
        0,
        1.3251372396413814e-16,
        0.47342271548515397,
        0.83136329010852072,
        0,
        5.2974405738679746e-17,
        0.75962105419058867,
        -0.43256884985583272,
        0,
        1.5705599784851074,
        129.86599731445312,
        -3.45346999168396,
        1
      ],
      "name": "Black_Glass"
    },
    {
      "mesh": 33,
      "name": "Material1"
    },
    {
      "children": [
        68,
        69
      ],
      "matrix": [
        -92.48699951171875,
        -1.1266815153231624e-14,
        -1.1601744110966481e-15,
        0,
        9.6129382641124572e-15,
        -78.082719153918916,
        -8.0403886527985975,
        0,
        0,
        -9.4634024229100309,
        91.902049208952448,
        0,
        -0.17364500463008881,
        -89.316596984863281,
        334.68499755859375,
        1
      ],
      "name": "Grid"
    },
    {
      "mesh": 34,
      "name": "Material1"
    },
    {
      "mesh": 35,
      "name": "Material2"
    },
    {
      "children": [
        71
      ],
      "matrix": [
        0.94045698642730713,
        0,
        0,
        0,
        0,
        2.0882340000023694e-16,
        0.94045698642730713,
        0,
        0,
        -0.94045698642730713,
        2.0882340000023694e-16,
        0,
        0.037323001772165298,
        7.2176899909973145,
        -12.955499649047852,
        1
      ],
      "name": "Corridor"
    },
    {
      "mesh": 36,
      "name": "Material1"
    },
    {
      "children": [
        73
      ],
      "matrix": [
        1,
        0,
        0,
        0,
        0,
        1,
        0,
        0,
        0,
        0,
        1,
        0,
        -0.072540298104286194,
        97.159103393554688,
        -77.989700317382812,
        1
      ],
      "name": "Bridge_1"
    },
    {
      "mesh": 37,
      "name": "Material1"
    },
    {
      "children": [
        75
      ],
      "matrix": [
        0.87719297409057617,
        0,
        0,
        0,
        0,
        0.87719297409057617,
        0,
        0,
        0,
        0,
        0.87719297409057617,
        0,
        -0.072540298104286194,
        130.73800659179688,
        -76.364700317382812,
        1
      ],
      "name": "Bridge_2"
    },
    {
      "mesh": 38,
      "name": "Material1"
    }
  ],
  "samplers": [
    {
      "magFilter": 9729,
      "minFilter": 9987,
      "wrapS": 10497,
      "wrapT": 10497
    },
    {
      "magFilter": 9729,
      "minFilter": 9987,
      "wrapS": 33648,
      "wrapT": 33648
    }
  ],
  "scene": 0,
  "scenes": [
    {
      "name": "OSG_Scene",
      "nodes": [
        0
      ]
    }
  ],
  "textures": [
    {
      "sampler": 0,
      "source": 0
    },
    {
      "sampler": 0,
      "source": 1
    },
    {
      "sampler": 0,
      "source": 2
    },
    {
      "sampler": 0,
      "source": 3
    },
    {
      "sampler": 0,
      "source": 4
    },
    {
      "sampler": 0,
      "source": 5
    },
    {
      "sampler": 0,
      "source": 6
    },
    {
      "sampler": 0,
      "source": 7
    },
    {
      "sampler": 0,
      "source": 8
    },
    {
      "sampler": 0,
      "source": 9
    },
    {
      "sampler": 1,
      "source": 10
    }
  ]
}

