{
  "accessors": [
    {
      "bufferView": 2,
      "componentType": 5126,
      "count": 14303,
      "max": [
        3.4540228843688965,
        1.0457162857055664,
        1.7025175094604492
      ],
      "min": [
        -1.5929481983184814,
        -0.42976462841033936,
        -1.7025175094604492
      ],
      "type": "VEC3"
    },
    {
      "bufferView": 2,
      "byteOffset": 171636,
      "componentType": 5126,
      "count": 14303,
      "max": [
        1,
        0.99998706579208374,
        1
      ],
      "min": [
        -1,
        -1,
        -1
      ],
      "type": "VEC3"
    },
    {
      "bufferView": 3,
      "componentType": 5126,
      "count": 14303,
      "max": [
        1,
        1,
        1,
        1
      ],
      "min": [
        -1,
        -1,
        -1,
        -1
      ],
      "type": "VEC4"
    },
    {
      "bufferView": 1,
      "componentType": 5126,
      "count": 14303,
      "max": [
        1.0026060342788696,
        1
      ],
      "min": [
        -0.094045147299766541,
        0
      ],
      "type": "VEC2"
    },
    {
      "bufferView": 0,
      "componentType": 5125,
      "count": 23064,
      "max": [
        14302
      ],
      "min": [
        0
      ],
      "type": "SCALAR"
    },
    {
      "bufferView": 2,
      "byteOffset": 343272,
      "componentType": 5126,
      "count": 462,
      "max": [
        2.0785260200500488,
        0.28264233469963074,
        0.99058616161346436
      ],
      "min": [
        -1.4169106483459473,
        -0.42976462841033936,
        -0.99058616161346436
      ],
      "type": "VEC3"
    },
    {
      "bufferView": 2,
      "byteOffset": 348816,
      "componentType": 5126,
      "count": 462,
      "max": [
        1,
        0.05637630820274353,
        1
      ],
      "min": [
        -1,
        -1,
        -1
      ],
      "type": "VEC3"
    },
    {
      "bufferView": 3,
      "byteOffset": 228848,
      "componentType": 5126,
      "count": 462,
      "max": [
        1,
        0.99984860420227051,
        1,
        1
      ],
      "min": [
        -0.23251505196094513,
        -1,
        -1,
        -1
      ],
      "type": "VEC4"
    },
    {
      "bufferView": 1,
      "byteOffset": 114424,
      "componentType": 5126,
      "count": 462,
      "max": [
        1.2779364585876465,
        1.0073132514953613
      ],
      "min": [
        0.042102575302124023,
        0.019312247633934021
      ],
      "type": "VEC2"
    },
    {
      "bufferView": 0,
      "byteOffset": 92256,
      "componentType": 5125,
      "count": 792,
      "max": [
        461
      ],
      "min": [
        0
      ],
      "type": "SCALAR"
    },
    {
      "bufferView": 2,
      "byteOffset": 354360,
      "componentType": 5126,
      "count": 1094,
      "max": [
        0.040418803691864014,
        0.037194013595581055,
        0.041019082069396973
      ],
      "min": [
        -0.04180486872792244,
        -0.017899980768561363,
        -0.041018541902303696
      ],
      "type": "VEC3"
    },
    {
      "bufferView": 2,
      "byteOffset": 367488,
      "componentType": 5126,
      "count": 1094,
      "max": [
        0.99795407056808472,
        0.99994003772735596,
        0.99518424272537231
      ],
      "min": [
        -0.99814498424530029,
        -0.99993997812271118,
        -0.99518418312072754
      ],
      "type": "VEC3"
    },
    {
      "bufferView": 3,
      "byteOffset": 236240,
      "componentType": 5126,
      "count": 1094,
      "max": [
        0.99504625797271729,
        0.99512755870819092,
        0.97779321670532227,
        1
      ],
      "min": [
        -0.7073066234588623,
        -0.99512815475463867,
        -1,
        -1
      ],
      "type": "VEC4"
    },
    {
      "bufferView": 1,
      "byteOffset": 118120,
      "componentType": 5126,
      "count": 1094,
      "max": [
        0.9843754768371582,
        1
      ],
      "min": [
        0.015625357627868652,
        0
      ],
      "type": "VEC2"
    },
    {
      "bufferView": 0,
      "byteOffset": 95424,
      "componentType": 5125,
      "count": 1644,
      "max": [
        1093
      ],
      "min": [
        0
      ],
      "type": "SCALAR"
    },
    {
      "bufferView": 2,
      "byteOffset": 380616,
      "componentType": 5126,
      "count": 1304,
      "max": [
        0.063289910554885864,
        0.027817359194159508,
        0.014549650251865387
      ],
      "min": [
        0.025895172730088234,
        -0.00010558747453615069,
        -0.014550253748893738
      ],
      "type": "VEC3"
    },
    {
      "bufferView": 2,
      "byteOffset": 396264,
      "componentType": 5126,
      "count": 1304,
      "max": [
        0.99123495817184448,
        0.92606300115585327,
        1
      ],
      "min": [
        -0.92607402801513672,
        -0.92606282234191895,
        -1
      ],
      "type": "VEC3"
    },
    {
      "bufferView": 3,
      "byteOffset": 253744,
      "componentType": 5126,
      "count": 1304,
      "max": [
        0.92606765031814575,
        0.96492952108383179,
        0.99518501758575439,
        1
      ],
      "min": [
        -0.92606282234191895,
        -0.99238204956054688,
        -0.99983960390090942,
        -1
      ],
      "type": "VEC4"
    },
    {
      "bufferView": 1,
      "byteOffset": 126872,
      "componentType": 5126,
      "count": 1304,
      "max": [
        1,
        0.82261466979980469
      ],
      "min": [
        0,
        0.01000000536441803
      ],
      "type": "VEC2"
    },
    {
      "bufferView": 0,
      "byteOffset": 102000,
      "componentType": 5125,
      "count": 2040,
      "max": [
        1303
      ],
      "min": [
        0
      ],
      "type": "SCALAR"
    },
    {
      "bufferView": 2,
      "byteOffset": 411912,
      "componentType": 5126,
      "count": 1094,
      "max": [
        0.040418803691864014,
        0.037194013595581055,
        0.041019082069396973
      ],
      "min": [
        -0.04180486872792244,
        -0.017899980768561363,
        -0.041018541902303696
      ],
      "type": "VEC3"
    },
    {
      "bufferView": 2,
      "byteOffset": 425040,
      "componentType": 5126,
      "count": 1094,
      "max": [
        0.99795407056808472,
        0.99994003772735596,
        0.99518424272537231
      ],
      "min": [
        -0.99814498424530029,
        -0.99993997812271118,
        -0.99518418312072754
      ],
      "type": "VEC3"
    },
    {
      "bufferView": 3,
      "byteOffset": 274608,
      "componentType": 5126,
      "count": 1094,
      "max": [
        0.99504625797271729,
        0.99512755870819092,
        0.97779321670532227,
        1
      ],
      "min": [
        -0.7073066234588623,
        -0.99512815475463867,
        -1,
        -1
      ],
      "type": "VEC4"
    },
    {
      "bufferView": 1,
      "byteOffset": 137304,
      "componentType": 5126,
      "count": 1094,
      "max": [
        0.9843754768371582,
        1
      ],
      "min": [
        0.015625357627868652,
        0
      ],
      "type": "VEC2"
    },
    {
      "bufferView": 0,
      "byteOffset": 110160,
      "componentType": 5125,
      "count": 1644,
      "max": [
        1093
      ],
      "min": [
        0
      ],
      "type": "SCALAR"
    },
    {
      "bufferView": 2,
      "byteOffset": 438168,
      "componentType": 5126,
      "count": 1304,
      "max": [
        0.063289910554885864,
        0.027817359194159508,
        0.014549650251865387
      ],
      "min": [
        0.025895172730088234,
        -0.00010558747453615069,
        -0.014550253748893738
      ],
      "type": "VEC3"
    },
    {
      "bufferView": 2,
      "byteOffset": 453816,
      "componentType": 5126,
      "count": 1304,
      "max": [
        0.99123495817184448,
        0.92606300115585327,
        1
      ],
      "min": [
        -0.92607402801513672,
        -0.92606282234191895,
        -1
      ],
      "type": "VEC3"
    },
    {
      "bufferView": 3,
      "byteOffset": 292112,
      "componentType": 5126,
      "count": 1304,
      "max": [
        0.92606765031814575,
        0.96492952108383179,
        0.99518501758575439,
        1
      ],
      "min": [
        -0.92606282234191895,
        -0.99238204956054688,
        -0.99983960390090942,
        -1
      ],
      "type": "VEC4"
    },
    {
      "bufferView": 1,
      "byteOffset": 146056,
      "componentType": 5126,
      "count": 1304,
      "max": [
        1,
        0.82261466979980469
      ],
      "min": [
        0,
        0.01000000536441803
      ],
      "type": "VEC2"
    },
    {
      "bufferView": 0,
      "byteOffset": 116736,
      "componentType": 5125,
      "count": 2040,
      "max": [
        1303
      ],
      "min": [
        0
      ],
      "type": "SCALAR"
    },
    {
      "bufferView": 2,
      "byteOffset": 469464,
      "componentType": 5126,
      "count": 1094,
      "max": [
        0.040418803691864014,
        0.037194013595581055,
        0.041019082069396973
      ],
      "min": [
        -0.04180486872792244,
        -0.017899980768561363,
        -0.041018541902303696
      ],
      "type": "VEC3"
    },
    {
      "bufferView": 2,
      "byteOffset": 482592,
      "componentType": 5126,
      "count": 1094,
      "max": [
        0.99795407056808472,
        0.99994003772735596,
        0.99518424272537231
      ],
      "min": [
        -0.99814498424530029,
        -0.99993997812271118,
        -0.99518418312072754
      ],
      "type": "VEC3"
    },
    {
      "bufferView": 3,
      "byteOffset": 312976,
      "componentType": 5126,
      "count": 1094,
      "max": [
        0.99504625797271729,
        0.99512755870819092,
        0.97779321670532227,
        1
      ],
      "min": [
        -0.7073066234588623,
        -0.99512815475463867,
        -1,
        -1
      ],
      "type": "VEC4"
    },
    {
      "bufferView": 1,
      "byteOffset": 156488,
      "componentType": 5126,
      "count": 1094,
      "max": [
        0.9843754768371582,
        1
      ],
      "min": [
        0.015625357627868652,
        0
      ],
      "type": "VEC2"
    },
    {
      "bufferView": 0,
      "byteOffset": 124896,
      "componentType": 5125,
      "count": 1644,
      "max": [
        1093
      ],
      "min": [
        0
      ],
      "type": "SCALAR"
    },
    {
      "bufferView": 2,
      "byteOffset": 495720,
      "componentType": 5126,
      "count": 1304,
      "max": [
        0.063289910554885864,
        0.027817359194159508,
        0.014549650251865387
      ],
      "min": [
        0.025895172730088234,
        -0.00010558747453615069,
        -0.014550253748893738
      ],
      "type": "VEC3"
    },
    {
      "bufferView": 2,
      "byteOffset": 511368,
      "componentType": 5126,
      "count": 1304,
      "max": [
        0.99123495817184448,
        0.92606300115585327,
        1
      ],
      "min": [
        -0.92607402801513672,
        -0.92606282234191895,
        -1
      ],
      "type": "VEC3"
    },
    {
      "bufferView": 3,
      "byteOffset": 330480,
      "componentType": 5126,
      "count": 1304,
      "max": [
        0.92606765031814575,
        0.96492952108383179,
        0.99518501758575439,
        1
      ],
      "min": [
        -0.92606282234191895,
        -0.99238204956054688,
        -0.99983960390090942,
        -1
      ],
      "type": "VEC4"
    },
    {
      "bufferView": 1,
      "byteOffset": 165240,
      "componentType": 5126,
      "count": 1304,
      "max": [
        1,
        0.82261466979980469
      ],
      "min": [
        0,
        0.01000000536441803
      ],
      "type": "VEC2"
    },
    {
      "bufferView": 0,
      "byteOffset": 131472,
      "componentType": 5125,
      "count": 2040,
      "max": [
        1303
      ],
      "min": [
        0
      ],
      "type": "SCALAR"
    },
    {
      "bufferView": 2,
      "byteOffset": 527016,
      "componentType": 5126,
      "count": 27645,
      "max": [
        1.2107036113739014,
        1.1940253973007202,
        0.89234781265258789
      ],
      "min": [
        -1.468228816986084,
        -0.39542883634567261,
        -0.89234781265258789
      ],
      "type": "VEC3"
    },
    {
      "bufferView": 2,
      "byteOffset": 858756,
      "componentType": 5126,
      "count": 27645,
      "max": [
        1,
        1,
        1
      ],
      "min": [
        -1,
        -1,
        -1
      ],
      "type": "VEC3"
    },
    {
      "bufferView": 3,
      "byteOffset": 351344,
      "componentType": 5126,
      "count": 27645,
      "max": [
        1,
        1,
        1,
        1
      ],
      "min": [
        -1,
        -1,
        -1,
        -1
      ],
      "type": "VEC4"
    },
    {
      "bufferView": 1,
      "byteOffset": 175672,
      "componentType": 5126,
      "count": 27645,
      "max": [
        1.0000002384185791,
        1
      ],
      "min": [
        0,
        0
      ],
      "type": "VEC2"
    },
    {
      "bufferView": 0,
      "byteOffset": 139632,
      "componentType": 5125,
      "count": 43998,
      "max": [
        27644
      ],
      "min": [
        0
      ],
      "type": "SCALAR"
    },
    {
      "bufferView": 2,
      "byteOffset": 1190496,
      "componentType": 5126,
      "count": 444,
      "max": [
        -1.1948847770690918,
        0.037668339908123016,
        0.75298941135406494
      ],
      "min": [
        -1.2214093208312988,
        -0.037668399512767792,
        -0.75298941135406494
      ],
      "type": "VEC3"
    },
    {
      "bufferView": 2,
      "byteOffset": 1195824,
      "componentType": 5126,
      "count": 444,
      "max": [
        1,
        0.99997925758361816,
        0.99997925758361816
      ],
      "min": [
        -1,
        -1,
        -0.99997925758361816
      ],
      "type": "VEC3"
    },
    {
      "bufferView": 3,
      "byteOffset": 793664,
      "componentType": 5126,
      "count": 444,
      "max": [
        1.5035737305879593e-05,
        0.00011807947885245085,
        1,
        1
      ],
      "min": [
        -3.4878925362136215e-05,
        -0.00015637509932275862,
        -1,
        -1
      ],
      "type": "VEC4"
    },
    {
      "bufferView": 1,
      "byteOffset": 396832,
      "componentType": 5126,
      "count": 444,
      "max": [
        0.57279646396636963,
        0.35689634084701538
      ],
      "min": [
        0.49428191781044006,
        0.3490593433380127
      ],
      "type": "VEC2"
    },
    {
      "bufferView": 0,
      "byteOffset": 315624,
      "componentType": 5125,
      "count": 972,
      "max": [
        443
      ],
      "min": [
        0
      ],
      "type": "SCALAR"
    },
    {
      "bufferView": 2,
      "byteOffset": 1201152,
      "componentType": 5126,
      "count": 1584,
      "max": [
        1.2117770910263062,
        -0.10366431623697281,
        0.21067699790000916
      ],
      "min": [
        0.65033328533172607,
        -0.12444864958524704,
        -0.21067699790000916
      ],
      "type": "VEC3"
    },
    {
      "bufferView": 2,
      "byteOffset": 1220160,
      "componentType": 5126,
      "count": 1584,
      "max": [
        1,
        1,
        1
      ],
      "min": [
        -1,
        -1,
        -1
      ],
      "type": "VEC3"
    },
    {
      "bufferView": 3,
      "byteOffset": 800768,
      "componentType": 5126,
      "count": 1584,
      "max": [
        0,
        1.6486208664900914e-07,
        5.4468893040393596e-07,
        1
      ],
      "min": [
        -1,
        -3.6635494637948796e-08,
        -5.4468893040393596e-07,
        -1
      ],
      "type": "VEC4"
    },
    {
      "bufferView": 1,
      "byteOffset": 400384,
      "componentType": 5126,
      "count": 1584,
      "max": [
        0.86216998100280762,
        0.75599324703216553
      ],
      "min": [
        0.63783001899719238,
        0.49400663375854492
      ],
      "type": "VEC2"
    },
    {
      "bufferView": 0,
      "byteOffset": 319512,
      "componentType": 5125,
      "count": 2376,
      "max": [
        1583
      ],
      "min": [
        0
      ],
      "type": "SCALAR"
    },
    {
      "bufferView": 2,
      "byteOffset": 1239168,
      "componentType": 5126,
      "count": 6960,
      "max": [
        -0.65715521574020386,
        1.0243817567825317,
        0.37597954273223877
      ],
      "min": [
        -0.7851947546005249,
        0.85841846466064453,
        -0.37597954273223877
      ],
      "type": "VEC3"
    },
    {
      "bufferView": 2,
      "byteOffset": 1322688,
      "componentType": 5126,
      "count": 6960,
      "max": [
        0.99668979644775391,
        0.99770480394363403,
        0.99792683124542236
      ],
      "min": [
        -0.99702799320220947,
        -0.99770498275756836,
        -0.99792683124542236
      ],
      "type": "VEC3"
    },
    {
      "bufferView": 3,
      "byteOffset": 826112,
      "componentType": 5126,
      "count": 6960,
      "max": [
        0.99934333562850952,
        0.23218399286270142,
        1,
        1
      ],
      "min": [
        -0.99938416481018066,
        -0.19714304804801941,
        -1,
        -1
      ],
      "type": "VEC4"
    },
    {
      "bufferView": 1,
      "byteOffset": 413056,
      "componentType": 5126,
      "count": 6960,
      "max": [
        0.51727211475372314,
        0.34979701042175293
      ],
      "min": [
        0.50421315431594849,
        0.33293300867080688
      ],
      "type": "VEC2"
    },
    {
      "bufferView": 0,
      "byteOffset": 329016,
      "componentType": 5125,
      "count": 10440,
      "max": [
        6959
      ],
      "min": [
        0
      ],
      "type": "SCALAR"
    },
    {
      "bufferView": 2,
      "byteOffset": 1406208,
      "componentType": 5126,
      "count": 38,
      "max": [
        -0.093890711665153503,
        0.87629580497741699,
        0.47337502241134644
      ],
      "min": [
        -0.59200394153594971,
        0.47054588794708252,
        -0.47337502241134644
      ],
      "type": "VEC3"
    },
    {
      "bufferView": 2,
      "byteOffset": 1406664,
      "componentType": 5126,
      "count": 38,
      "max": [
        0.99535644054412842,
        0.9953569769859314,
        1
      ],
      "min": [
        -0.096269585192203522,
        -0.99535536766052246,
        -1
      ],
      "type": "VEC3"
    },
    {
      "bufferView": 3,
      "byteOffset": 937472,
      "componentType": 5126,
      "count": 38,
      "max": [
        0.096260227262973785,
        0.99535644054412842,
        1.4921708952897461e-06,
        1
      ],
      "min": [
        -0.072550244629383087,
        -0.99736505746841431,
        -1.4921708952897461e-06,
        -1
      ],
      "type": "VEC4"
    },
    {
      "bufferView": 1,
      "byteOffset": 468736,
      "componentType": 5126,
      "count": 38,
      "max": [
        0.91508305072784424,
        0.69046914577484131
      ],
      "min": [
        0.75581938028335571,
        0.36327975988388062
      ],
      "type": "VEC2"
    },
    {
      "bufferView": 0,
      "byteOffset": 370776,
      "componentType": 5125,
      "count": 72,
      "max": [
        37
      ],
      "min": [
        0
      ],
      "type": "SCALAR"
    },
    {
      "bufferView": 2,
      "byteOffset": 1407120,
      "componentType": 5126,
      "count": 1675,
      "max": [
        0.054563850164413452,
        0.04645702987909317,
        0.054563850164413452
      ],
      "min": [
        -0.054563850164413452,
        0,
        -0.054563850164413452
      ],
      "type": "VEC3"
    },
    {
      "bufferView": 2,
      "byteOffset": 1427220,
      "componentType": 5126,
      "count": 1675,
      "max": [
        1,
        1,
        1
      ],
      "min": [
        -1,
        -1,
        -1
      ],
      "type": "VEC3"
    },
    {
      "bufferView": 3,
      "byteOffset": 938080,
      "componentType": 5126,
      "count": 1675,
      "max": [
        0.19304338097572327,
        0.98105347156524658,
        1,
        1
      ],
      "min": [
        -0.19391250610351562,
        -0.97705191373825073,
        -1,
        -1
      ],
      "type": "VEC4"
    },
    {
      "bufferView": 1,
      "byteOffset": 469040,
      "componentType": 5126,
      "count": 1675,
      "max": [
        0.45916542410850525,
        0.36414426565170288
      ],
      "min": [
        0.43936815857887268,
        0.33783957362174988
      ],
      "type": "VEC2"
    },
    {
      "bufferView": 0,
      "byteOffset": 371064,
      "componentType": 5125,
      "count": 3144,
      "max": [
        1674
      ],
      "min": [
        0
      ],
      "type": "SCALAR"
    },
    {
      "bufferView": 2,
      "byteOffset": 1447320,
      "componentType": 5126,
      "count": 1152,
      "max": [
        0.070150889456272125,
        0.03858562558889389,
        0.01310732401907444
      ],
      "min": [
        0.036141097545623779,
        0.032709673047065735,
        -0.01310732401907444
      ],
      "type": "VEC3"
    },
    {
      "bufferView": 2,
      "byteOffset": 1461144,
      "componentType": 5126,
      "count": 1152,
      "max": [
        1,
        0.99518215656280518,
        0.99518954753875732
      ],
      "min": [
        -1,
        -0.99518221616744995,
        -0.99518954753875732
      ],
      "type": "VEC3"
    },
    {
      "bufferView": 3,
      "byteOffset": 964880,
      "componentType": 5126,
      "count": 1152,
      "max": [
        0.19304752349853516,
        0.97875970602035522,
        1,
        1
      ],
      "min": [
        -0.1933877021074295,
        -0.97653043270111084,
        -1,
        -1
      ],
      "type": "VEC4"
    },
    {
      "bufferView": 1,
      "byteOffset": 482440,
      "componentType": 5126,
      "count": 1152,
      "max": [
        0.44936156272888184,
        0.36966624855995178
      ],
      "min": [
        0.44790071249008179,
        0.36126136779785156
      ],
      "type": "VEC2"
    },
    {
      "bufferView": 0,
      "byteOffset": 383640,
      "componentType": 5125,
      "count": 2280,
      "max": [
        1151
      ],
      "min": [
        0
      ],
      "type": "SCALAR"
    },
    {
      "bufferView": 2,
      "byteOffset": 1474968,
      "componentType": 5126,
      "count": 1675,
      "max": [
        0.054563850164413452,
        0.04645702987909317,
        0.054563850164413452
      ],
      "min": [
        -0.054563850164413452,
        0,
        -0.054563850164413452
      ],
      "type": "VEC3"
    },
    {
      "bufferView": 2,
      "byteOffset": 1495068,
      "componentType": 5126,
      "count": 1675,
      "max": [
        1,
        1,
        1
      ],
      "min": [
        -1,
        -1,
        -1
      ],
      "type": "VEC3"
    },
    {
      "bufferView": 3,
      "byteOffset": 983312,
      "componentType": 5126,
      "count": 1675,
      "max": [
        0.19304852187633514,
        0.98104393482208252,
        1,
        1
      ],
      "min": [
        -0.19420416653156281,
        -0.97705173492431641,
        -1,
        -1
      ],
      "type": "VEC4"
    },
    {
      "bufferView": 1,
      "byteOffset": 491656,
      "componentType": 5126,
      "count": 1675,
      "max": [
        0.45639568567276001,
        0.36165934801101685
      ],
      "min": [
        0.43139064311981201,
        0.32843509316444397
      ],
      "type": "VEC2"
    },
    {
      "bufferView": 0,
      "byteOffset": 392760,
      "componentType": 5125,
      "count": 3144,
      "max": [
        1674
      ],
      "min": [
        0
      ],
      "type": "SCALAR"
    },
    {
      "bufferView": 2,
      "byteOffset": 1515168,
      "componentType": 5126,
      "count": 1152,
      "max": [
        0.070150889456272125,
        0.03858562558889389,
        0.01310732401907444
      ],
      "min": [
        0.036141097545623779,
        0.032709673047065735,
        -0.01310732401907444
      ],
      "type": "VEC3"
    },
    {
      "bufferView": 2,
      "byteOffset": 1528992,
      "componentType": 5126,
      "count": 1152,
      "max": [
        1,
        0.99518215656280518,
        0.99518954753875732
      ],
      "min": [
        -1,
        -0.99518221616744995,
        -0.99518954753875732
      ],
      "type": "VEC3"
    },
    {
      "bufferView": 3,
      "byteOffset": 1010112,
      "componentType": 5126,
      "count": 1152,
      "max": [
        0.19311106204986572,
        0.97876036167144775,
        1,
        1
      ],
      "min": [
        -0.19356678426265717,
        -0.97651958465576172,
        -1,
        -1
      ],
      "type": "VEC4"
    },
    {
      "bufferView": 1,
      "byteOffset": 505056,
      "componentType": 5126,
      "count": 1152,
      "max": [
        0.44401288032531738,
        0.36863389611244202
      ],
      "min": [
        0.44216769933700562,
        0.35801810026168823
      ],
      "type": "VEC2"
    },
    {
      "bufferView": 0,
      "byteOffset": 405336,
      "componentType": 5125,
      "count": 2280,
      "max": [
        1151
      ],
      "min": [
        0
      ],
      "type": "SCALAR"
    },
    {
      "bufferView": 2,
      "byteOffset": 1542816,
      "componentType": 5126,
      "count": 1675,
      "max": [
        0.054563850164413452,
        0.04645702987909317,
        0.054563850164413452
      ],
      "min": [
        -0.054563850164413452,
        0,
        -0.054563850164413452
      ],
      "type": "VEC3"
    },
    {
      "bufferView": 2,
      "byteOffset": 1562916,
      "componentType": 5126,
      "count": 1675,
      "max": [
        1,
        1,
        1
      ],
      "min": [
        -1,
        -1,
        -1
      ],
      "type": "VEC3"
    },
    {
      "bufferView": 3,
      "byteOffset": 1028544,
      "componentType": 5126,
      "count": 1675,
      "max": [
        0.19304798543453217,
        0.98104536533355713,
        1,
        1
      ],
      "min": [
        -0.19415208697319031,
        -0.97705191373825073,
        -1,
        -1
      ],
      "type": "VEC4"
    },
    {
      "bufferView": 1,
      "byteOffset": 514272,
      "componentType": 5126,
      "count": 1675,
      "max": [
        0.45767518877983093,
        0.36254546046257019
      ],
      "min": [
        0.431092768907547,
        0.32722529768943787
      ],
      "type": "VEC2"
    },
    {
      "bufferView": 0,
      "byteOffset": 414456,
      "componentType": 5125,
      "count": 3144,
      "max": [
        1674
      ],
      "min": [
        0
      ],
      "type": "SCALAR"
    },
    {
      "bufferView": 2,
      "byteOffset": 1583016,
      "componentType": 5126,
      "count": 1152,
      "max": [
        0.070150889456272125,
        0.03858562558889389,
        0.01310732401907444
      ],
      "min": [
        0.036141097545623779,
        0.032709673047065735,
        -0.01310732401907444
      ],
      "type": "VEC3"
    },
    {
      "bufferView": 2,
      "byteOffset": 1596840,
      "componentType": 5126,
      "count": 1152,
      "max": [
        1,
        0.99518215656280518,
        0.99518954753875732
      ],
      "min": [
        -1,
        -0.99518221616744995,
        -0.99518954753875732
      ],
      "type": "VEC3"
    },
    {
      "bufferView": 3,
      "byteOffset": 1055344,
      "componentType": 5126,
      "count": 1152,
      "max": [
        0.19310221076011658,
        0.97876501083374023,
        1,
        1
      ],
      "min": [
        -0.19356386363506317,
        -0.97651749849319458,
        -1,
        -1
      ],
      "type": "VEC4"
    },
    {
      "bufferView": 1,
      "byteOffset": 527672,
      "componentType": 5126,
      "count": 1152,
      "max": [
        0.44451123476028442,
        0.36995998024940491
      ],
      "min": [
        0.44254970550537109,
        0.35867449641227722
      ],
      "type": "VEC2"
    },
    {
      "bufferView": 0,
      "byteOffset": 427032,
      "componentType": 5125,
      "count": 2280,
      "max": [
        1151
      ],
      "min": [
        0
      ],
      "type": "SCALAR"
    },
    {
      "bufferView": 2,
      "byteOffset": 1610664,
      "componentType": 5126,
      "count": 1675,
      "max": [
        0.054563850164413452,
        0.04645702987909317,
        0.054563850164413452
      ],
      "min": [
        -0.054563850164413452,
        0,
        -0.054563850164413452
      ],
      "type": "VEC3"
    },
    {
      "bufferView": 2,
      "byteOffset": 1630764,
      "componentType": 5126,
      "count": 1675,
      "max": [
        1,
        1,
        1
      ],
      "min": [
        -1,
        -1,
        -1
      ],
      "type": "VEC3"
    },
    {
      "bufferView": 3,
      "byteOffset": 1073776,
      "componentType": 5126,
      "count": 1675,
      "max": [
        0.19304278492927551,
        0.98105305433273315,
        1,
        1
      ],
      "min": [
        -0.19459089636802673,
        -0.97705191373825073,
        -1,
        -1
      ],
      "type": "VEC4"
    },
    {
      "bufferView": 1,
      "byteOffset": 536888,
      "componentType": 5126,
      "count": 1675,
      "max": [
        0.38779643177986145,
        0.36382535099983215
      ],
      "min": [
        0.36621764302253723,
        0.33515354990959167
      ],
      "type": "VEC2"
    },
    {
      "bufferView": 0,
      "byteOffset": 436152,
      "componentType": 5125,
      "count": 3144,
      "max": [
        1674
      ],
      "min": [
        0
      ],
      "type": "SCALAR"
    },
    {
      "bufferView": 2,
      "byteOffset": 1650864,
      "componentType": 5126,
      "count": 1152,
      "max": [
        0.070150889456272125,
        0.03858562558889389,
        0.01310732401907444
      ],
      "min": [
        0.036141097545623779,
        0.032709673047065735,
        -0.01310732401907444
      ],
      "type": "VEC3"
    },
    {
      "bufferView": 2,
      "byteOffset": 1664688,
      "componentType": 5126,
      "count": 1152,
      "max": [
        1,
        0.99518215656280518,
        0.99518954753875732
      ],
      "min": [
        -1,
        -0.99518221616744995,
        -0.99518954753875732
      ],
      "type": "VEC3"
    },
    {
      "bufferView": 3,
      "byteOffset": 1100576,
      "componentType": 5126,
      "count": 1152,
      "max": [
        0.19310154020786285,
        0.9787718653678894,
        1,
        1
      ],
      "min": [
        -0.19397710263729095,
        -0.97651582956314087,
        -1,
        -1
      ],
      "type": "VEC4"
    },
    {
      "bufferView": 1,
      "byteOffset": 550288,
      "componentType": 5126,
      "count": 1152,
      "max": [
        0.37711033225059509,
        0.3698442280292511
      ],
      "min": [
        0.37551805377006531,
        0.36068302392959595
      ],
      "type": "VEC2"
    },
    {
      "bufferView": 0,
      "byteOffset": 448728,
      "componentType": 5125,
      "count": 2280,
      "max": [
        1151
      ],
      "min": [
        0
      ],
      "type": "SCALAR"
    },
    {
      "bufferView": 2,
      "byteOffset": 1678512,
      "componentType": 5126,
      "count": 1675,
      "max": [
        0.054563850164413452,
        0.04645702987909317,
        0.054563850164413452
      ],
      "min": [
        -0.054563850164413452,
        0,
        -0.054563850164413452
      ],
      "type": "VEC3"
    },
    {
      "bufferView": 2,
      "byteOffset": 1698612,
      "componentType": 5126,
      "count": 1675,
      "max": [
        1,
        1,
        1
      ],
      "min": [
        -1,
        -1,
        -1
      ],
      "type": "VEC3"
    },
    {
      "bufferView": 3,
      "byteOffset": 1119008,
      "componentType": 5126,
      "count": 1675,
      "max": [
        1,
        1,
        0.99949485063552856,
        1
      ],
      "min": [
        -0.23060761392116547,
        -0.96935981512069702,
        -0.99949485063552856,
        -1
      ],
      "type": "VEC4"
    },
    {
      "bufferView": 1,
      "byteOffset": 559504,
      "componentType": 5126,
      "count": 1675,
      "max": [
        0.46303901076316833,
        0.36617586016654968
      ],
      "min": [
        0.44060072302818298,
        0.33638536930084229
      ],
      "type": "VEC2"
    },
    {
      "bufferView": 0,
      "byteOffset": 457848,
      "componentType": 5125,
      "count": 3144,
      "max": [
        1674
      ],
      "min": [
        0
      ],
      "type": "SCALAR"
    },
    {
      "bufferView": 2,
      "byteOffset": 1718712,
      "componentType": 5126,
      "count": 1152,
      "max": [
        0.070150889456272125,
        0.03858562558889389,
        0.01310732401907444
      ],
      "min": [
        0.036141097545623779,
        0.032709673047065735,
        -0.01310732401907444
      ],
      "type": "VEC3"
    },
    {
      "bufferView": 2,
      "byteOffset": 1732536,
      "componentType": 5126,
      "count": 1152,
      "max": [
        1,
        0.99518215656280518,
        0.99518954753875732
      ],
      "min": [
        -1,
        -0.99518221616744995,
        -0.99518954753875732
      ],
      "type": "VEC3"
    },
    {
      "bufferView": 3,
      "byteOffset": 1145808,
      "componentType": 5126,
      "count": 1152,
      "max": [
        0.23135499656200409,
        0.97192811965942383,
        0.99527084827423096,
        1
      ],
      "min": [
        -0.23103401064872742,
        -0.96827858686447144,
        -0.99527084827423096,
        -1
      ],
      "type": "VEC4"
    },
    {
      "bufferView": 1,
      "byteOffset": 572904,
      "componentType": 5126,
      "count": 1152,
      "max": [
        0.45224860310554504,
        0.33936464786529541
      ],
      "min": [
        0.45059287548065186,
        0.32987096905708313
      ],
      "type": "VEC2"
    },
    {
      "bufferView": 0,
      "byteOffset": 470424,
      "componentType": 5125,
      "count": 2280,
      "max": [
        1151
      ],
      "min": [
        0
      ],
      "type": "SCALAR"
    },
    {
      "bufferView": 2,
      "byteOffset": 1746360,
      "componentType": 5126,
      "count": 1675,
      "max": [
        0.054563850164413452,
        0.04645702987909317,
        0.054563850164413452
      ],
      "min": [
        -0.054563850164413452,
        0,
        -0.054563850164413452
      ],
      "type": "VEC3"
    },
    {
      "bufferView": 2,
      "byteOffset": 1766460,
      "componentType": 5126,
      "count": 1675,
      "max": [
        1,
        1,
        1
      ],
      "min": [
        -1,
        -1,
        -1
      ],
      "type": "VEC3"
    },
    {
      "bufferView": 3,
      "byteOffset": 1164240,
      "componentType": 5126,
      "count": 1675,
      "max": [
        1,
        1,
        0.99949520826339722,
        1
      ],
      "min": [
        -0.23061685264110565,
        -0.96935957670211792,
        -0.99949520826339722,
        -1
      ],
      "type": "VEC4"
    },
    {
      "bufferView": 1,
      "byteOffset": 582120,
      "componentType": 5126,
      "count": 1675,
      "max": [
        0.43475079536437988,
        0.36274188756942749
      ],
      "min": [
        0.41732823848724365,
        0.33961057662963867
      ],
      "type": "VEC2"
    },
    {
      "bufferView": 0,
      "byteOffset": 479544,
      "componentType": 5125,
      "count": 3144,
      "max": [
        1674
      ],
      "min": [
        0
      ],
      "type": "SCALAR"
    },
    {
      "bufferView": 2,
      "byteOffset": 1786560,
      "componentType": 5126,
      "count": 1152,
      "max": [
        0.070150889456272125,
        0.03858562558889389,
        0.01310732401907444
      ],
      "min": [
        0.036141097545623779,
        0.032709673047065735,
        -0.01310732401907444
      ],
      "type": "VEC3"
    },
    {
      "bufferView": 2,
      "byteOffset": 1800384,
      "componentType": 5126,
      "count": 1152,
      "max": [
        1,
        0.99518215656280518,
        0.99518954753875732
      ],
      "min": [
        -1,
        -0.99518221616744995,
        -0.99518954753875732
      ],
      "type": "VEC3"
    },
    {
      "bufferView": 3,
      "byteOffset": 1191040,
      "componentType": 5126,
      "count": 1152,
      "max": [
        0.23142777383327484,
        0.97192424535751343,
        0.99527055025100708,
        1
      ],
      "min": [
        -0.23110681772232056,
        -0.96833765506744385,
        -0.99527055025100708,
        -1
      ],
      "type": "VEC4"
    },
    {
      "bufferView": 1,
      "byteOffset": 595520,
      "componentType": 5126,
      "count": 1152,
      "max": [
        0.42637240886688232,
        0.34192392230033875
      ],
      "min": [
        0.42508679628372192,
        0.33455240726470947
      ],
      "type": "VEC2"
    },
    {
      "bufferView": 0,
      "byteOffset": 492120,
      "componentType": 5125,
      "count": 2280,
      "max": [
        1151
      ],
      "min": [
        0
      ],
      "type": "SCALAR"
    },
    {
      "bufferView": 2,
      "byteOffset": 1814208,
      "componentType": 5126,
      "count": 1675,
      "max": [
        0.054563850164413452,
        0.04645702987909317,
        0.054563850164413452
      ],
      "min": [
        -0.054563850164413452,
        0,
        -0.054563850164413452
      ],
      "type": "VEC3"
    },
    {
      "bufferView": 2,
      "byteOffset": 1834308,
      "componentType": 5126,
      "count": 1675,
      "max": [
        1,
        1,
        1
      ],
      "min": [
        -1,
        -1,
        -1
      ],
      "type": "VEC3"
    },
    {
      "bufferView": 3,
      "byteOffset": 1209472,
      "componentType": 5126,
      "count": 1675,
      "max": [
        1,
        1,
        0.99949538707733154,
        1
      ],
      "min": [
        -0.23061379790306091,
        -0.96935951709747314,
        -0.99949538707733154,
        -1
      ],
      "type": "VEC4"
    },
    {
      "bufferView": 1,
      "byteOffset": 604736,
      "componentType": 5126,
      "count": 1675,
      "max": [
        0.40744099020957947,
        0.36527100205421448
      ],
      "min": [
        0.38629093766212463,
        0.33719074726104736
      ],
      "type": "VEC2"
    },
    {
      "bufferView": 0,
      "byteOffset": 501240,
      "componentType": 5125,
      "count": 3144,
      "max": [
        1674
      ],
      "min": [
        0
      ],
      "type": "SCALAR"
    },
    {
      "bufferView": 2,
      "byteOffset": 1854408,
      "componentType": 5126,
      "count": 1152,
      "max": [
        0.070150889456272125,
        0.03858562558889389,
        0.01310732401907444
      ],
      "min": [
        0.036141097545623779,
        0.032709673047065735,
        -0.01310732401907444
      ],
      "type": "VEC3"
    },
    {
      "bufferView": 2,
      "byteOffset": 1868232,
      "componentType": 5126,
      "count": 1152,
      "max": [
        1,
        0.99518215656280518,
        0.99518954753875732
      ],
      "min": [
        -1,
        -0.99518221616744995,
        -0.99518954753875732
      ],
      "type": "VEC3"
    },
    {
      "bufferView": 3,
      "byteOffset": 1236272,
      "componentType": 5126,
      "count": 1152,
      "max": [
        0.23142546415328979,
        0.97186356782913208,
        0.99527055025100708,
        1
      ],
      "min": [
        -0.23125502467155457,
        -0.96830856800079346,
        -0.99527055025100708,
        -1
      ],
      "type": "VEC4"
    },
    {
      "bufferView": 1,
      "byteOffset": 618136,
      "componentType": 5126,
      "count": 1152,
      "max": [
        0.39727011322975159,
        0.33999904990196228
      ],
      "min": [
        0.39570942521095276,
        0.33105039596557617
      ],
      "type": "VEC2"
    },
    {
      "bufferView": 0,
      "byteOffset": 513816,
      "componentType": 5125,
      "count": 2280,
      "max": [
        1151
      ],
      "min": [
        0
      ],
      "type": "SCALAR"
    },
    {
      "bufferView": 2,
      "byteOffset": 1882056,
      "componentType": 5126,
      "count": 1675,
      "max": [
        0.054563850164413452,
        0.04645702987909317,
        0.054563850164413452
      ],
      "min": [
        -0.054563850164413452,
        0,
        -0.054563850164413452
      ],
      "type": "VEC3"
    },
    {
      "bufferView": 2,
      "byteOffset": 1902156,
      "componentType": 5126,
      "count": 1675,
      "max": [
        1,
        1,
        1
      ],
      "min": [
        -1,
        -1,
        -1
      ],
      "type": "VEC3"
    },
    {
      "bufferView": 3,
      "byteOffset": 1254704,
      "componentType": 5126,
      "count": 1675,
      "max": [
        1,
        1,
        0.99949419498443604,
        1
      ],
      "min": [
        -0.23061229288578033,
        -0.96935909986495972,
        -0.99949419498443604,
        -1
      ],
      "type": "VEC4"
    },
    {
      "bufferView": 1,
      "byteOffset": 627352,
      "componentType": 5126,
      "count": 1675,
      "max": [
        0.39038541913032532,
        0.36760550737380981
      ],
      "min": [
        0.36802908778190613,
        0.33792382478713989
      ],
      "type": "VEC2"
    },
    {
      "bufferView": 0,
      "byteOffset": 522936,
      "componentType": 5125,
      "count": 3144,
      "max": [
        1674
      ],
      "min": [
        0
      ],
      "type": "SCALAR"
    },
    {
      "bufferView": 2,
      "byteOffset": 1922256,
      "componentType": 5126,
      "count": 1152,
      "max": [
        0.070150889456272125,
        0.03858562558889389,
        0.01310732401907444
      ],
      "min": [
        0.036141097545623779,
        0.032709673047065735,
        -0.01310732401907444
      ],
      "type": "VEC3"
    },
    {
      "bufferView": 2,
      "byteOffset": 1936080,
      "componentType": 5126,
      "count": 1152,
      "max": [
        1,
        0.99518215656280518,
        0.99518954753875732
      ],
      "min": [
        -1,
        -0.99518221616744995,
        -0.99518954753875732
      ],
      "type": "VEC3"
    },
    {
      "bufferView": 3,
      "byteOffset": 1281504,
      "componentType": 5126,
      "count": 1152,
      "max": [
        0.23151274025440216,
        0.97187513113021851,
        0.99527066946029663,
        1
      ],
      "min": [
        -0.23072835803031921,
        -0.96840924024581909,
        -0.99527066946029663,
        -1
      ],
      "type": "VEC4"
    },
    {
      "bufferView": 1,
      "byteOffset": 640752,
      "componentType": 5126,
      "count": 1152,
      "max": [
        0.37963441014289856,
        0.34089219570159912
      ],
      "min": [
        0.37798476219177246,
        0.33143323659896851
      ],
      "type": "VEC2"
    },
    {
      "bufferView": 0,
      "byteOffset": 535512,
      "componentType": 5125,
      "count": 2280,
      "max": [
        1151
      ],
      "min": [
        0
      ],
      "type": "SCALAR"
    },
    {
      "bufferView": 2,
      "byteOffset": 1949904,
      "componentType": 5126,
      "count": 186,
      "max": [
        0.19655215740203857,
        -0.27195256948471069,
        1.2211753129959106
      ],
      "min": [
        -0.89519542455673218,
        -0.37713372707366943,
        -1.1834264993667603
      ],
      "type": "VEC3"
    },
    {
      "bufferView": 2,
      "byteOffset": 1952136,
      "componentType": 5126,
      "count": 186,
      "max": [
        1,
        0.98898774385452271,
        0.94875854253768921
      ],
      "min": [
        -1,
        -0.98965412378311157,
        -0.94875854253768921
      ],
      "type": "VEC3"
    },
    {
      "bufferView": 3,
      "byteOffset": 1299936,
      "componentType": 5126,
      "count": 186,
      "max": [
        1,
        1,
        0.48720091581344604,
        1
      ],
      "min": [
        -0.99715173244476318,
        -0.99981296062469482,
        -0.4872010350227356,
        -1
      ],
      "type": "VEC4"
    },
    {
      "bufferView": 1,
      "byteOffset": 649968,
      "componentType": 5126,
      "count": 186,
      "max": [
        0.92752599716186523,
        0.83470749855041504
      ],
      "min": [
        -0.0091357845813035965,
        -0.19922126829624176
      ],
      "type": "VEC2"
    },
    {
      "bufferView": 0,
      "byteOffset": 544632,
      "componentType": 5125,
      "count": 288,
      "max": [
        185
      ],
      "min": [
        0
      ],
      "type": "SCALAR"
    },
    {
      "bufferView": 2,
      "byteOffset": 1954368,
      "componentType": 5126,
      "count": 1534,
      "max": [
        3.3820650577545166,
        0.96765559911727905,
        1.5881049633026123
      ],
      "min": [
        -1.3312002420425415,
        -0.3459162712097168,
        -1.5881049633026123
      ],
      "type": "VEC3"
    },
    {
      "bufferView": 2,
      "byteOffset": 1972776,
      "componentType": 5126,
      "count": 1534,
      "max": [
        0.99970203638076782,
        0.97805649042129517,
        1
      ],
      "min": [
        -0.99965769052505493,
        -0.98294973373413086,
        -1
      ],
      "type": "VEC3"
    },
    {
      "bufferView": 3,
      "byteOffset": 1302912,
      "componentType": 5126,
      "count": 1534,
      "max": [
        1,
        0.99999856948852539,
        1,
        1
      ],
      "min": [
        -0.99951630830764771,
        -0.99999737739562988,
        -1,
        -1
      ],
      "type": "VEC4"
    },
    {
      "bufferView": 1,
      "byteOffset": 651456,
      "componentType": 5126,
      "count": 1534,
      "max": [
        1.5112414360046387,
        1.7264778614044189
      ],
      "min": [
        -0.55807876586914062,
        -0.72644597291946411
      ],
      "type": "VEC2"
    },
    {
      "bufferView": 0,
      "byteOffset": 545784,
      "componentType": 5125,
      "count": 2304,
      "max": [
        1533
      ],
      "min": [
        0
      ],
      "type": "SCALAR"
    },
    {
      "bufferView": 2,
      "byteOffset": 1991184,
      "componentType": 5126,
      "count": 16,
      "max": [
        -1.0795145034790039,
        0.04919641837477684,
        1.5881049633026123
      ],
      "min": [
        -1.1021324396133423,
        -0.052596952766180038,
        -1.5881049633026123
      ],
      "type": "VEC3"
    },
    {
      "bufferView": 2,
      "byteOffset": 1991376,
      "componentType": 5126,
      "count": 16,
      "max": [
        -0.95627385377883911,
        0.0014474390773102641,
        0.29247024655342102
      ],
      "min": [
        -0.95627397298812866,
        0.0011395635083317757,
        -0.29247024655342102
      ],
      "type": "VEC3"
    },
    {
      "bufferView": 3,
      "byteOffset": 1327456,
      "componentType": 5126,
      "count": 16,
      "max": [
        -0.29246973991394043,
        -4.2402443796163425e-05,
        0.95627480745315552,
        1
      ],
      "min": [
        -0.29247048497200012,
        -4.2472180211916566e-05,
        -0.95627486705780029,
        -1
      ],
      "type": "VEC4"
    },
    {
      "bufferView": 1,
      "byteOffset": 663728,
      "componentType": 5126,
      "count": 16,
      "max": [
        1.078069806098938,
        0.72819620370864868
      ],
      "min": [
        0.90247738361358643,
        0.4965742826461792
      ],
      "type": "VEC2"
    },
    {
      "bufferView": 0,
      "byteOffset": 555000,
      "componentType": 5125,
      "count": 24,
      "max": [
        15
      ],
      "min": [
        0
      ],
      "type": "SCALAR"
    },
    {
      "bufferView": 2,
      "byteOffset": 1991568,
      "componentType": 5126,
      "count": 2944,
      "max": [
        -1.2189881801605225,
        0.15891645848751068,
        0.874550461769104
      ],
      "min": [
        -1.4275761842727661,
        -0.15891680121421814,
        -0.874550461769104
      ],
      "type": "VEC3"
    },
    {
      "bufferView": 2,
      "byteOffset": 2026896,
      "componentType": 5126,
      "count": 2944,
      "max": [
        -0.26137527823448181,
        0.96058940887451172,
        0.96058911085128784
      ],
      "min": [
        -0.98162150382995605,
        -0.96058917045593262,
        -0.96058911085128784
      ],
      "type": "VEC3"
    },
    {
      "bufferView": 3,
      "byteOffset": 1327712,
      "componentType": 5126,
      "count": 2944,
      "max": [
        2.9305535917956149e-06,
        0.99518483877182007,
        0.9951859712600708,
        1
      ],
      "min": [
        -3.9045339690346736e-06,
        -0.99518495798110962,
        -0.9951859712600708,
        -1
      ],
      "type": "VEC4"
    },
    {
      "bufferView": 1,
      "byteOffset": 663856,
      "componentType": 5126,
      "count": 2944,
      "max": [
        1.0000002384185791,
        1
      ],
      "min": [
        0,
        0.625
      ],
      "type": "VEC2"
    },
    {
      "bufferView": 0,
      "byteOffset": 555096,
      "componentType": 5125,
      "count": 4224,
      "max": [
        2943
      ],
      "min": [
        0
      ],
      "type": "SCALAR"
    }
  ],
  "asset": {
    "extras": {
      "author": "Digital Sock (https://sketchfab.com/DigitalSock)",
      "license": "CC-BY-4.0 (http://creativecommons.org/licenses/by/4.0/)",
      "source": "https://sketchfab.com/3d-models/low-poly-imperial-star-destroyer-224ad417d1e246019fe35966a72e5125",
      "title": "Low Poly Imperial Star Destroyer"
    },
    "generator": "Sketchfab-6.68.0",
    "version": "2.0"
  },
  "bufferViews": [
    {
      "buffer": 0,
      "byteLength": 571992,
      "byteOffset": 0,
      "name": "floatBufferViews",
      "target": 34963
    },
    {
      "buffer": 0,
      "byteLength": 687408,
      "byteOffset": 571992,
      "byteStride": 8,
      "name": "floatBufferViews",
      "target": 34962
    },
    {
      "buffer": 0,
      "byteLength": 2062224,
      "byteOffset": 1259400,
      "byteStride": 12,
      "name": "floatBufferViews",
      "target": 34962
    },
    {
      "buffer": 0,
      "byteLength": 1374816,
      "byteOffset": 3321624,
      "byteStride": 16,
      "name": "floatBufferViews",
      "target": 34962
    }
  ],
  "buffers": [
    {
      "byteLength": 4696440,
      "uri": "scene.bin"
    }
  ],
  "images": [
    {
      "uri": "textures/Material.013_metallicRoughness.png"
    },
    {
      "uri": "textures/Material.009_emissive.png"
    }
  ],
  "materials": [
    {
      "doubleSided": true,
      "emissiveFactor": [
        0,
        0,
        0
      ],
      "name": "Material.013",
      "pbrMetallicRoughness": {
        "baseColorFactor": [
          0.80000000000000004,
          0.80000000000000004,
          0.80000000000000004,
          1
        ],
        "metallicFactor": 1,
        "metallicRoughnessTexture": {
          "index": 0,
          "texCoord": 0
        },
        "roughnessFactor": 1
      }
    },
    {
      "doubleSided": true,
      "emissiveFactor": [
        1,
        1,
        1
      ],
      "emissiveTexture": {
        "index": 1,
        "texCoord": 0
      },
      "name": "Material.009",
      "pbrMetallicRoughness": {
        "baseColorFactor": [
          0.80000000000000004,
          0.80000000000000004,
          0.80000000000000004,
          1
        ],
        "metallicFactor": 1,
        "metallicRoughnessTexture": {
          "index": 0,
          "texCoord": 0
        },
        "roughnessFactor": 1
      }
    },
    {
      "doubleSided": true,
      "emissiveFactor": [
        0,
        0,
        0
      ],
      "name": "Material.012",
      "pbrMetallicRoughness": {
        "baseColorFactor": [
          0.24527439024390243,
          0.24527439024390243,
          0.24527439024390243,
          1
        ],
        "metallicFactor": 0.74561737804878048,
        "roughnessFactor": 0.25171493902439024
      }
    },
    {
      "doubleSided": true,
      "emissiveFactor": [
        0.35623762957317046,
        1,
        1
      ],
      "name": "Material.011",
      "pbrMetallicRoughness": {
        "baseColorFactor": [
          1,
          1,
          1,
          1
        ],
        "metallicFactor": 1,
        "roughnessFactor": 1
      }
    },
    {
      "doubleSided": true,
      "emissiveFactor": [
        1,
        0.96885600000000005,
        0.787412
      ],
      "name": "Material.010",
      "pbrMetallicRoughness": {
        "baseColorFactor": [
          1,
          1,
          1,
          1
        ],
        "metallicFactor": 1,
        "roughnessFactor": 1
      }
    }
  ],
  "meshes": [
    {
      "primitives": [
        {
          "attributes": {
            "NORMAL": 1,
            "POSITION": 0,
            "TANGENT": 2,
            "TEXCOORD_0": 3
          },
          "indices": 4,
          "material": 0,
          "mode": 4
        }
      ]
    },
    {
      "primitives": [
        {
          "attributes": {
            "NORMAL": 6,
            "POSITION": 5,
            "TANGENT": 7,
            "TEXCOORD_0": 8
          },
          "indices": 9,
          "material": 1,
          "mode": 4
        }
      ]
    },
    {
      "primitives": [
        {
          "attributes": {
            "NORMAL": 11,
            "POSITION": 10,
            "TANGENT": 12,
            "TEXCOORD_0": 13
          },
          "indices": 14,
          "material": 0,
          "mode": 4
        }
      ]
    },
    {
      "primitives": [
        {
          "attributes": {
            "NORMAL": 16,
            "POSITION": 15,
            "TANGENT": 17,
            "TEXCOORD_0": 18
          },
          "indices": 19,
          "material": 2,
          "mode": 4
        }
      ]
    },
    {
      "primitives": [
        {
          "attributes": {
            "NORMAL": 21,
            "POSITION": 20,
            "TANGENT": 22,
            "TEXCOORD_0": 23
          },
          "indices": 24,
          "material": 0,
          "mode": 4
        }
      ]
    },
    {
      "primitives": [
        {
          "attributes": {
            "NORMAL": 26,
            "POSITION": 25,
            "TANGENT": 27,
            "TEXCOORD_0": 28
          },
          "indices": 29,
          "material": 2,
          "mode": 4
        }
      ]
    },
    {
      "primitives": [
        {
          "attributes": {
            "NORMAL": 31,
            "POSITION": 30,
            "TANGENT": 32,
            "TEXCOORD_0": 33
          },
          "indices": 34,
          "material": 0,
          "mode": 4
        }
      ]
    },
    {
      "primitives": [
        {
          "attributes": {
            "NORMAL": 36,
            "POSITION": 35,
            "TANGENT": 37,
            "TEXCOORD_0": 38
          },
          "indices": 39,
          "material": 2,
          "mode": 4
        }
      ]
    },
    {
      "primitives": [
        {
          "attributes": {
            "NORMAL": 41,
            "POSITION": 40,
            "TANGENT": 42,
            "TEXCOORD_0": 43
          },
          "indices": 44,
          "material": 0,
          "mode": 4
        }
      ]
    },
    {
      "primitives": [
        {
          "attributes": {
            "NORMAL": 46,
            "POSITION": 45,
            "TANGENT": 47,
            "TEXCOORD_0": 48
          },
          "indices": 49,
          "material": 3,
          "mode": 4
        }
      ]
    },
    {
      "primitives": [
        {
          "attributes": {
            "NORMAL": 51,
            "POSITION": 50,
            "TANGENT": 52,
            "TEXCOORD_0": 53
          },
          "indices": 54,
          "material": 4,
          "mode": 4
        }
      ]
    },
    {
      "primitives": [
        {
          "attributes": {
            "NORMAL": 56,
            "POSITION": 55,
            "TANGENT": 57,
            "TEXCOORD_0": 58
          },
          "indices": 59,
          "material": 2,
          "mode": 4
        }
      ]
    },
    {
      "primitives": [
        {
          "attributes": {
            "NORMAL": 61,
            "POSITION": 60,
            "TANGENT": 62,
            "TEXCOORD_0": 63
          },
          "indices": 64,
          "material": 1,
          "mode": 4
        }
      ]
    },
    {
      "primitives": [
        {
          "attributes": {
            "NORMAL": 66,
            "POSITION": 65,
            "TANGENT": 67,
            "TEXCOORD_0": 68
          },
          "indices": 69,
          "material": 0,
          "mode": 4
        }
      ]
    },
    {
      "primitives": [
        {
          "attributes": {
            "NORMAL": 71,
            "POSITION": 70,
            "TANGENT": 72,
            "TEXCOORD_0": 73
          },
          "indices": 74,
          "material": 2,
          "mode": 4
        }
      ]
    },
    {
      "primitives": [
        {
          "attributes": {
            "NORMAL": 76,
            "POSITION": 75,
            "TANGENT": 77,
            "TEXCOORD_0": 78
          },
          "indices": 79,
          "material": 0,
          "mode": 4
        }
      ]
    },
    {
      "primitives": [
        {
          "attributes": {
            "NORMAL": 81,
            "POSITION": 80,
            "TANGENT": 82,
            "TEXCOORD_0": 83
          },
          "indices": 84,
          "material": 2,
          "mode": 4
        }
      ]
    },
    {
      "primitives": [
        {
          "attributes": {
            "NORMAL": 86,
            "POSITION": 85,
            "TANGENT": 87,
            "TEXCOORD_0": 88
          },
          "indices": 89,
          "material": 0,
          "mode": 4
        }
      ]
    },
    {
      "primitives": [
        {
          "attributes": {
            "NORMAL": 91,
            "POSITION": 90,
            "TANGENT": 92,
            "TEXCOORD_0": 93
          },
          "indices": 94,
          "material": 2,
          "mode": 4
        }
      ]
    },
    {
      "primitives": [
        {
          "attributes": {
            "NORMAL": 96,
            "POSITION": 95,
            "TANGENT": 97,
            "TEXCOORD_0": 98
          },
          "indices": 99,
          "material": 0,
          "mode": 4
        }
      ]
    },
    {
      "primitives": [
        {
          "attributes": {
            "NORMAL": 101,
            "POSITION": 100,
            "TANGENT": 102,
            "TEXCOORD_0": 103
          },
          "indices": 104,
          "material": 2,
          "mode": 4
        }
      ]
    },
    {
      "primitives": [
        {
          "attributes": {
            "NORMAL": 106,
            "POSITION": 105,
            "TANGENT": 107,
            "TEXCOORD_0": 108
          },
          "indices": 109,
          "material": 0,
          "mode": 4
        }
      ]
    },
    {
      "primitives": [
        {
          "attributes": {
            "NORMAL": 111,
            "POSITION": 110,
            "TANGENT": 112,
            "TEXCOORD_0": 113
          },
          "indices": 114,
          "material": 2,
          "mode": 4
        }
      ]
    },
    {
      "primitives": [
        {
          "attributes": {
            "NORMAL": 116,
            "POSITION": 115,
            "TANGENT": 117,
            "TEXCOORD_0": 118
          },
          "indices": 119,
          "material": 0,
          "mode": 4
        }
      ]
    },
    {
      "primitives": [
        {
          "attributes": {
            "NORMAL": 121,
            "POSITION": 120,
            "TANGENT": 122,
            "TEXCOORD_0": 123
          },
          "indices": 124,
          "material": 2,
          "mode": 4
        }
      ]
    },
    {
      "primitives": [
        {
          "attributes": {
            "NORMAL": 126,
            "POSITION": 125,
            "TANGENT": 127,
            "TEXCOORD_0": 128
          },
          "indices": 129,
          "material": 0,
          "mode": 4
        }
      ]
    },
    {
      "primitives": [
        {
          "attributes": {
            "NORMAL": 131,
            "POSITION": 130,
            "TANGENT": 132,
            "TEXCOORD_0": 133
          },
          "indices": 134,
          "material": 2,
          "mode": 4
        }
      ]
    },
    {
      "primitives": [
        {
          "attributes": {
            "NORMAL": 136,
            "POSITION": 135,
            "TANGENT": 137,
            "TEXCOORD_0": 138
          },
          "indices": 139,
          "material": 0,
          "mode": 4
        }
      ]
    },
    {
      "primitives": [
        {
          "attributes": {
            "NORMAL": 141,
            "POSITION": 140,
            "TANGENT": 142,
            "TEXCOORD_0": 143
          },
          "indices": 144,
          "material": 2,
          "mode": 4
        }
      ]
    },
    {
      "primitives": [
        {
          "attributes": {
            "NORMAL": 146,
            "POSITION": 145,
            "TANGENT": 147,
            "TEXCOORD_0": 148
          },
          "indices": 149,
          "material": 1,
          "mode": 4
        }
      ]
    },
    {
      "primitives": [
        {
          "attributes": {
            "NORMAL": 151,
            "POSITION": 150,
            "TANGENT": 152,
            "TEXCOORD_0": 153
          },
          "indices": 154,
          "material": 1,
          "mode": 4
        }
      ]
    },
    {
      "primitives": [
        {
          "attributes": {
            "NORMAL": 156,
            "POSITION": 155,
            "TANGENT": 157,
            "TEXCOORD_0": 158
          },
          "indices": 159,
          "material": 0,
          "mode": 4
        }
      ]
    },
    {
      "primitives": [
        {
          "attributes": {
            "NORMAL": 161,
            "POSITION": 160,
            "TANGENT": 162,
            "TEXCOORD_0": 163
          },
          "indices": 164,
          "material": 3,
          "mode": 4
        }
      ]
    }
  ],
  "nodes": [
    {
      "children": [
        1
      ],
      "name": "RootNode (gltf orientation matrix)",
      "rotation": [
        -0.70710678118654746,
        -0,
        -0,
        0.70710678118654757
      ]
    },
    {
      "children": [
        2
      ],
      "name": "RootNode (model correction matrix)"
    },
    {
      "children": [
        3
      ],
      "name": "root"
    },
    {
      "children": [
        4
      ],
      "matrix": [
        1,
        0,
        0,
        0,
        0,
        2.2204460492503131e-16,
        1,
        0,
        0,
        -1,
        2.2204460492503131e-16,
        0,
        0,
        0,
        0,
        1
      ],
      "name": "GLTF_SceneRootNode"
    },
    {
      "children": [
        5,
        6,
        7,
        10,
        13,
        16,
        46,
        48,
        51
      ],
      "matrix": [
        317.02182006835938,
        0,
        0,
        0,
        0,
        317.02182006835938,
        0,
        0,
        0,
        0,
        317.02182006835938,
        0,
        0,
        0,
        0,
        1
      ],
      "name": "ISD I Hull_15"
    },
    {
      "mesh": 0,
      "name": ""
    },
    {
      "mesh": 1,
      "name": ""
    },
    {
      "children": [
        8,
        9
      ],
      "matrix": [
        0.78951745913738403,
        -0.11303720070730255,
        -0,
        0,
        0.11303720070730255,
        0.78951745913738403,
        0,
        0,
        0,
        0,
        0.79756826162338257,
        0,
        0.9035828709602356,
        0.28979635238647461,
        0,
        1
      ],
      "name": "Ion Cannon_0"
    },
    {
      "mesh": 2,
      "name": ""
    },
    {
      "mesh": 3,
      "name": ""
    },
    {
      "children": [
        11,
        12
      ],
      "matrix": [
        0.78951745913738403,
        -0.11303720070730255,
        -0,
        0,
        0.11303720070730255,
        0.78951745913738403,
        0,
        0,
        0,
        0,
        0.79756826162338257,
        0,
        1.0622552633285522,
        0.26645722985267639,
        0,
        1
      ],
      "name": "Ion Cannon.001_1"
    },
    {
      "mesh": 4,
      "name": ""
    },
    {
      "mesh": 5,
      "name": ""
    },
    {
      "children": [
        14,
        15
      ],
      "matrix": [
        0.78951745913738403,
        -0.11303720070730255,
        -0,
        0,
        0.11303720070730255,
        0.78951745913738403,
        0,
        0,
        0,
        0,
        0.79756826162338257,
        0,
        0.98143547773361206,
        0.27807110548019409,
        0,
        1
      ],
      "name": "Ion Cannon.002_2"
    },
    {
      "mesh": 6,
      "name": ""
    },
    {
      "mesh": 7,
      "name": ""
    },
    {
      "children": [
        17,
        18,
        19,
        20,
        21,
        22,
        25,
        28,
        31,
        34,
        37,
        40,
        43
      ],
      "name": "ISD I Details_11"
    },
    {
      "mesh": 8,
      "name": ""
    },
    {
      "mesh": 9,
      "name": ""
    },
    {
      "mesh": 10,
      "name": ""
    },
    {
      "mesh": 11,
      "name": ""
    },
    {
      "mesh": 12,
      "name": ""
    },
    {
      "children": [
        23,
        24
      ],
      "matrix": [
        -0.014762507625357246,
        -0.19326885697438034,
        -0.98103476864605965,
        0,
        0.0747170081364706,
        0.97818535359489123,
        -0.19383184131502287,
        0,
        0.99709550047312212,
        -0.076161426826538287,
        2.0176237347513393e-09,
        0,
        -0.15373000502586365,
        0.13162446022033691,
        -0.85358202457427979,
        1
      ],
      "name": "Heavy Turret_3"
    },
    {
      "mesh": 13,
      "name": ""
    },
    {
      "mesh": 14,
      "name": ""
    },
    {
      "children": [
        26,
        27
      ],
      "matrix": [
        -0.014762507625357246,
        -0.19326885697438034,
        -0.98103476864605965,
        0,
        0.0747170081364706,
        0.97818535359489123,
        -0.19383184131502287,
        0,
        0.99709550047312212,
        -0.076161426826538287,
        2.0176237347513393e-09,
        0,
        -0.30202484130859375,
        0.14237046241760254,
        -0.85358202457427979,
        1
      ],
      "name": "Heavy Turret.001_4"
    },
    {
      "mesh": 15,
      "name": ""
    },
    {
      "mesh": 16,
      "name": ""
    },
    {
      "children": [
        29,
        30
      ],
      "matrix": [
        -0.014762507625357246,
        -0.19326885697438034,
        -0.98103476864605965,
        0,
        0.0747170081364706,
        0.97818535359489123,
        -0.19383184131502287,
        0,
        0.99709550047312212,
        -0.076161426826538287,
        2.0176237347513393e-09,
        0,
        -0.44924506545066833,
        0.15526565909385681,
        -0.85358202457427979,
        1
      ],
      "name": "Heavy Turret.002_5"
    },
    {
      "mesh": 17,
      "name": ""
    },
    {
      "mesh": 18,
      "name": ""
    },
    {
      "children": [
        32,
        33
      ],
      "matrix": [
        -0.014762507625357246,
        -0.19326885697438034,
        -0.98103476864605965,
        0,
        0.0747170081364706,
        0.97818535359489123,
        -0.19383184131502287,
        0,
        0.99709550047312212,
        -0.076161426826538287,
        2.0176237347513393e-09,
        0,
        -0.59753990173339844,
        0.16590419411659241,
        -0.85358202457427979,
        1
      ],
      "name": "Heavy Turret.003_6"
    },
    {
      "mesh": 19,
      "name": ""
    },
    {
      "mesh": 20,
      "name": ""
    },
    {
      "children": [
        35,
        36
      ],
      "matrix": [
        0.01476253714795428,
        -0.23089366450835791,
        0.9728669915188084,
        -0,
        0.074717014722985531,
        0.97050748266730047,
        0.22919989920954315,
        0,
        0.99709549954246635,
        -0.069306145302429192,
        -0.031578838095758677,
        0,
        -0.15373000502586365,
        0.13316963613033295,
        0.84646415710449219,
        1
      ],
      "name": "Heavy Turret.004_7"
    },
    {
      "mesh": 21,
      "name": ""
    },
    {
      "mesh": 22,
      "name": ""
    },
    {
      "children": [
        38,
        39
      ],
      "matrix": [
        0.01476253714795428,
        -0.23089366450835791,
        0.9728669915188084,
        -0,
        0.074717014722985531,
        0.97050748266730047,
        0.22919989920954315,
        0,
        0.99709549954246635,
        -0.069306145302429192,
        -0.031578838095758677,
        0,
        -0.30202484130859375,
        0.14294838905334473,
        0.85091978311538696,
        1
      ],
      "name": "Heavy Turret.005_8"
    },
    {
      "mesh": 23,
      "name": ""
    },
    {
      "mesh": 24,
      "name": ""
    },
    {
      "children": [
        41,
        42
      ],
      "matrix": [
        0.01476253714795428,
        -0.23089366450835791,
        0.9728669915188084,
        -0,
        0.074717014722985531,
        0.97050748266730047,
        0.22919989920954315,
        0,
        0.99709549954246635,
        -0.069306145302429192,
        -0.031578838095758677,
        0,
        -0.44924506545066833,
        0.15468288958072662,
        0.8562665581703186,
        1
      ],
      "name": "Heavy Turret.006_9"
    },
    {
      "mesh": 25,
      "name": ""
    },
    {
      "mesh": 26,
      "name": ""
    },
    {
      "children": [
        44,
        45
      ],
      "matrix": [
        0.01476253714795428,
        -0.23089366450835791,
        0.9728669915188084,
        -0,
        0.074717014722985531,
        0.97050748266730047,
        0.22919989920954315,
        0,
        0.99709549954246635,
        -0.069306145302429192,
        -0.031578838095758677,
        0,
        -0.59753990173339844,
        0.16436386108398438,
        0.86067759990692139,
        1
      ],
      "name": "Heavy Turret.007_10"
    },
    {
      "mesh": 27,
      "name": ""
    },
    {
      "mesh": 28,
      "name": ""
    },
    {
      "children": [
        47
      ],
      "matrix": [
        1,
        0,
        0,
        0,
        0,
        1,
        0,
        0,
        0,
        0,
        1,
        0,
        0,
        0.20004260540008545,
        0.10490036755800247,
        1
      ],
      "name": "ISD I Hull Lower assymetry_12"
    },
    {
      "mesh": 29,
      "name": ""
    },
    {
      "children": [
        49,
        50
      ],
      "name": "ISD I Hull Minor_13"
    },
    {
      "mesh": 30,
      "name": ""
    },
    {
      "mesh": 31,
      "name": ""
    },
    {
      "children": [
        52
      ],
      "name": "Sphere_14"
    },
    {
      "mesh": 32,
      "name": ""
    }
  ],
  "samplers": [
    {
      "magFilter": 9729,
      "minFilter": 9987,
      "wrapS": 10497,
      "wrapT": 10497
    }
  ],
  "scene": 0,
  "scenes": [
    {
      "name": "OSG_Scene",
      "nodes": [
        0
      ]
    }
  ],
  "textures": [
    {
      "sampler": 0,
      "source": 0
    },
    {
      "sampler": 0,
      "source": 1
    }
  ]
}

